Test.vcd
$date
	Tue Jun  2 13:24:50 2020
$end
$version
	Icarus Verilog
$end
$timescale
	1s
$end
$scope module PipelinedMIPS_tb $end
$var reg 1 ! Clk $end
$var reg 1 " Rst $end
$scope module P5SMIPS $end
$var wire 1 ! Clk $end
$var wire 32 # PCout [31:0] $end
$var wire 1 $ PCsrc $end
$var wire 1 " Rst $end
$var wire 1 % zero $end
$var wire 5 & writeReg2 [4:0] $end
$var wire 5 ' writeReg [4:0] $end
$var wire 32 ( writeData [31:0] $end
$var wire 5 ) stall [4:0] $end
$var wire 5 * rtSel [4:0] $end
$var wire 5 + rsSel [4:0] $end
$var wire 1 , regWrite $end
$var wire 1 - regDst $end
$var wire 5 . rdSel [4:0] $end
$var wire 6 / opCode_nop [5:0] $end
$var wire 6 0 opCode [5:0] $end
$var wire 1 1 nop $end
$var wire 1 2 memtoreg $end
$var wire 1 3 memWrite $end
$var wire 1 4 memRead $end
$var wire 1 5 jump $end
$var wire 32 6 inc4_PC [31:0] $end
$var wire 1 7 flushIF $end
$var wire 32 8 data2 [31:0] $end
$var wire 32 9 data1 [31:0] $end
$var wire 1 : branch $end
$var wire 1 ; Zero $end
$var wire 32 < PCin [31:0] $end
$var wire 32 = Offset_add [31:0] $end
$var wire 32 > JuOffset32 [31:0] $end
$var wire 28 ? JuOffset28 [27:0] $end
$var wire 32 @ JA_ALUout [31:0] $end
$var wire 32 A Instruction [31:0] $end
$var wire 32 B ImOffset [31:0] $end
$var wire 32 C Extdata [31:0] $end
$var wire 32 D DO [31:0] $end
$var wire 2 E ControlWire3 [1:0] $end
$var wire 7 F ControlWire2 [6:0] $end
$var wire 10 G ControlWire1 [9:0] $end
$var wire 32 H B [31:0] $end
$var wire 1 I ALUsrc $end
$var wire 32 J ALUresult [31:0] $end
$var wire 2 K ALUOp [1:0] $end
$var wire 4 L ALUCnt [3:0] $end
$var reg 108 M EX_MEM_pipereg [107:0] $end
$var reg 191 N ID_EX_pipereg [190:0] $end
$var reg 64 O IF_ID_pipereg [63:0] $end
$var reg 71 P MEM_WB_pipereg [70:0] $end
$var reg 32 Q PC_reg [31:0] $end
$scope module ALU0 $end
$var wire 32 R A [31:0] $end
$var wire 1 ; Zero $end
$var wire 32 S B [31:0] $end
$var wire 4 T AluOp [3:0] $end
$var reg 32 U ALUresult [31:0] $end
$upscope $end
$scope module ALU1 $end
$var wire 2 V AluOp [1:0] $end
$var wire 6 W Funct [5:0] $end
$var wire 6 X Imm [5:0] $end
$var reg 4 Y ALUCnt [3:0] $end
$upscope $end
$scope module CUnit $end
$var wire 6 Z Instruction [5:0] $end
$var wire 2 [ ALUOp [1:0] $end
$var reg 1 \ ALUOp0 $end
$var reg 1 ] ALUOp1 $end
$var reg 1 I ALUsrc $end
$var reg 1 : Branch $end
$var reg 1 5 Jump $end
$var reg 1 4 MemRead $end
$var reg 1 3 MemWrite $end
$var reg 1 2 MemtoReg $end
$var reg 1 - RegDst $end
$var reg 1 , RegWrite $end
$upscope $end
$scope module DataMemory $end
$var wire 32 ^ Address [31:0] $end
$var wire 1 ! Clk $end
$var wire 1 " Rst $end
$var wire 32 _ WriteData [31:0] $end
$var wire 1 ` memRead $end
$var wire 1 a memWrite $end
$var wire 32 b ReadData [31:0] $end
$upscope $end
$scope module HazUnit $end
$var wire 1 c EX_MEM_regWen $end
$var wire 5 d ID_EX_Rs [4:0] $end
$var wire 5 e ID_EX_Rt [4:0] $end
$var wire 5 f MEM_WB_Rd [4:0] $end
$var wire 1 g MEM_WB_regWen $end
$var wire 5 h EX_MEM_Rd [4:0] $end
$var reg 1 i Hazflag $end
$var reg 1 7 flushIF $end
$var reg 1 1 nop $end
$var reg 5 j stall [4:0] $end
$upscope $end
$scope module ImmediateAddressAdder $end
$var wire 32 k A [31:0] $end
$var wire 32 l B [31:0] $end
$var reg 32 m Result [31:0] $end
$upscope $end
$scope module InputSelectALU $end
$var wire 32 n I0 [31:0] $end
$var wire 32 o I1 [31:0] $end
$var wire 1 p Sel $end
$var wire 32 q Out [31:0] $end
$upscope $end
$scope module InstructionMemory $end
$var wire 32 r Address [31:0] $end
$var wire 1 ! Clk $end
$var wire 1 s Rst $end
$var wire 32 t Data [31:0] $end
$upscope $end
$scope module JumpAddressSel $end
$var wire 32 u I0 [31:0] $end
$var wire 32 v I1 [31:0] $end
$var wire 1 w Sel $end
$var wire 32 x Out [31:0] $end
$upscope $end
$scope module MemorySelMux $end
$var wire 32 y I0 [31:0] $end
$var wire 32 z I1 [31:0] $end
$var wire 1 { Sel $end
$var wire 32 | Out [31:0] $end
$upscope $end
$scope module NOPinsert $end
$var wire 6 } I0 [5:0] $end
$var wire 6 ~ I1 [5:0] $end
$var wire 1 1 Sel $end
$var wire 6 !" Out [5:0] $end
$upscope $end
$scope module PCAddressIncrement $end
$var wire 32 "" A [31:0] $end
$var wire 32 #" B [31:0] $end
$var reg 32 $" Result [31:0] $end
$upscope $end
$scope module PCSelect $end
$var wire 32 %" I0 [31:0] $end
$var wire 32 &" I1 [31:0] $end
$var wire 1 $ Sel $end
$var wire 32 '" Out [31:0] $end
$upscope $end
$scope module RdRtSelRF $end
$var wire 5 (" I0 [4:0] $end
$var wire 5 )" I1 [4:0] $end
$var wire 1 *" Sel $end
$var wire 5 +" Out [4:0] $end
$upscope $end
$scope module Registers $end
$var wire 1 ! Clk $end
$var wire 1 " Rst $end
$var wire 32 ," data1 [31:0] $end
$var wire 32 -" data2 [31:0] $end
$var wire 5 ." read1 [4:0] $end
$var wire 5 /" read2 [4:0] $end
$var wire 1 0" regWen $end
$var wire 32 1" writeData [31:0] $end
$var wire 5 2" writeReg [4:0] $end
$upscope $end
$scope module Shiftby2 $end
$var wire 32 3" In [31:0] $end
$var wire 32 4" Out [31:0] $end
$upscope $end
$scope module Shiftby2Jump $end
$var wire 26 5" In [25:0] $end
$var wire 28 6" Out [27:0] $end
$upscope $end
$scope module SignExtend $end
$var wire 16 7" In [15:0] $end
$var wire 32 8" Out [31:0] $end
$upscope $end
$upscope $end
$upscope $end
$enddefinitions $end
#0
$dumpvars
bx 8"
bx 7"
bx00 6"
bx 5"
bx00 4"
bx 3"
bx 2"
bx 1"
x0"
bx /"
bx ."
bx -"
bx ,"
bx +"
x*"
bx )"
bx ("
bx '"
bx &"
bx %"
bx $"
b100 #"
bx ""
bx !"
b111111 ~
bx }
bx |
x{
bx z
bx y
bx x
xw
bx00 v
bx u
bx t
zs
bx r
bx q
xp
bx o
bx n
bx m
bx00 l
bx k
b0 j
0i
bx h
xg
bx f
bx e
bx d
xc
bx b
xa
x`
bx _
bx ^
x]
x\
bx [
bx Z
bx Y
bx X
bx W
bx V
bx U
bx T
bx S
bx R
bx Q
bx P
bx O
bx00xxxxxxxxxxxxxxxxxxxxxxxxxxxxxxxxxxxxxxxxxxxxxxxxxxxxxxxxxxxxxxxxxxxxxxxxxxxxxxxxxxxxxxxxxxxxxxxxxxxxxxxxxxxxxxxxxxxxxxxxxxxxxxxxxxxxxxxxxxxxxxxxxxxxxxxxxx N
bxzxxxxxxxxxxxxxxxxxxxxxxxxxxxxxxxxxxxxxxxxxxxxxxxxxxxxxxxxxxxxxxxxxxxxxxxxxxxxxxxxxxxxxxxxxxxxxxxx M
bx L
bx K
bx J
xI
bx H
bx G
bxz F
bx E
bx D
bx C
bx00 B
bx A
bx @
bx00 ?
bx00 >
bx =
bx <
x;
x:
bx 9
bx 8
x7
bx 6
x5
x4
x3
x2
01
bx 0
bx /
bx .
x-
x,
bx +
bx *
b0 )
bx (
bx '
bx &
z%
x$
bx #
0"
1!
$end
#1
b0 @
b0 x
0\
b10 K
b10 [
1]
05
0:
03
04
1,
12
0I
b101010100 G
1-
1;
b0 J
b0 U
b0 u
b0 =
b0 m
b0 (
b0 |
b0 1"
b100 <
b100 '"
0g
0$
bz D
bz b
0c
b10 L
b10 T
b10 Y
b0 H
b0 S
b0 q
b0 B
b0 l
b0 4"
b0 '
b0 h
b0 +"
b0 /
b0 Z
b0 !"
b0 C
b0 8"
b0 2"
00"
b0 y
b0 z
0{
b0 &"
b0 E
b0 &
b0 f
b0 ^
b0 _
0a
0`
b0z F
b0 R
b0 V
b0 W
b0 X
b0 n
b0 o
0p
b0 3"
b0 k
b0 ("
b0 )"
0*"
b0 v
0w
b0 9
b0 ,"
b0 +
b0 d
b0 ."
b0 8
b0 -"
b0 *
b0 e
b0 /"
b0 .
b0 0
b0 }
b0 7"
b0 >
b0 ?
b0 6"
b0 5"
b0 P
b0 M
b0 N
b0 O
b100 6
b100 $"
b100 %"
b10001101001010000000000000001010 A
b10001101001010000000000000001010 t
b0 #
b0 ""
b0 Q
b0 r
1"
#2
0!
#3
b0 K
b0 [
0]
14
02
1I
b1100001000 G
0-
bz (
bz |
bz 1"
1c
b1101 L
b1101 T
b1101 Y
b100011 /
b100011 Z
b100011 !"
b1010 C
b1010 8"
b1000 <
b1000 '"
bz y
b10100z F
b10 V
1*"
b1 9
b1 ,"
b1001 +
b1001 d
b1001 ."
b1000 *
b1000 e
b1000 /"
b100011 0
b100011 }
b1010 7"
b100101000000000000000101000 >
b100101000000000000000101000 ?
b100101000000000000000101000 6"
b1001010000000000000001010 5"
b1000 6
b1000 $"
b1000 %"
b0zzzzzzzzzzzzzzzzzzzzzzzzzzzzzzzz P
b0z000000000000000000000000000000000000000000000000000000000000000000000000000000000000000000000000 M
b1010101000000000000000000000000000000000000000000000000000000000000000000000000000000000000000000000000000000000000 N
b10010001101001010000000000000001010 O
b10101101100010110000000000010100 A
b10101101100010110000000000010100 t
b100 #
b100 ""
b100 Q
b100 r
1!
#4
0!
#5
b1011 @
b1011 x
13
04
0,
x2
b10100x0x00 G
x-
0;
b1011 J
b1011 U
b1011 u
b1010 H
b1010 S
b1010 q
b1000 '
b1000 h
b1000 +"
b1100 <
b1100 '"
b101011 /
b101011 Z
b101011 !"
b10100 C
b10100 8"
b101100 =
b101100 m
b10 L
b10 T
b10 Y
b101000 B
b101000 l
b101000 4"
1g
b1100 6
b1100 $"
b1100 %"
b10 9
b10 ,"
b1100 +
b1100 d
b1100 ."
b1101111011101101 8
b1101111011101101 -"
b1011 *
b1011 e
b1011 /"
b101011 0
b101011 }
b10100 7"
b110001011000000000001010000 >
b110001011000000000001010000 ?
b110001011000000000001010000 6"
b1100010110000000000010100 5"
b100101000000000000000101000 v
b100011 X
b100 k
b10010z F
b0 V
1p
0*"
b1000 ("
b1010 W
b1010 o
b1010 3"
b1 R
b11 E
b1110011110110100000100000 A
b1110011110110100000100000 t
b1000 #
b1000 ""
b1000 Q
b1000 r
b100010101101100010110000000000010100 O
b1001000001001010000000000000001010001000110000000000000000000000000000010011000010000100000000000000000000000000000000000010100000000000000000000000000000000000000000000000000000000000000001 N
b10100z000000000000000000000000000000000000000000000000000000000000000000000000000000000000000000000000 M
1!
#6
0!
#7
b10110 @
b10110 x
b10 K
b10 [
1]
03
1,
12
0I
b101010100 G
1-
b10110 J
b10110 U
b10110 u
b0 (
b0 |
b0 1"
b1101111010101111 D
b1101111010101111 b
b1011000 =
b1011000 m
0c
b0x0xx '
b0x0xx h
b0x0xx +"
b10100 H
b10100 S
b10100 q
b1010000 B
b1010000 l
b1010000 4"
b0 /
b0 Z
b0 !"
b110100000100000 C
b110100000100000 8"
b10000 <
b10000 '"
10"
1{
b1000 &
b1000 f
b10 E
1`
b1011 ^
b101100 &"
b110001011000000000001010000 v
b101011 X
b1000 k
b1x00z F
x*"
b1011 ("
b10100 W
b10100 o
b10100 3"
b1101111011101101 n
b10 R
b101 9
b101 ,"
b1110 +
b1110 d
b1110 ."
b1001 8
b1001 -"
b1111 *
b1111 e
b1111 /"
b1101 .
b0 0
b0 }
b110100000100000 7"
b111001111011010000010000000 >
b111001111011010000010000000 ?
b111001111011010000010000000 6"
b1110011110110100000100000 5"
b10000 6
b10000 $"
b10000 %"
b110000000000000000000000000000000000000zzzzzzzzzzzzzzzzzzzzzzzzzzzzzzzz P
b1000010010z000000000000000000000000000000000000000000000000000000000000101100000000000000000000000000101100 M
b1100000001100010110000000000010100001010110000000000000000000000000000100010100x0x000101100000000000000000000000000000000101000000000000000000110111101110110100000000000000000000000000000010 N
b110000000001110011110110100000100000 O
b1110011110101000000100010 A
b1110011110101000000100010 t
b1100 #
b1100 ""
b1100 Q
b1100 r
1!
#8
0!
#9
b1110 @
b1110 x
b1110 J
b1110 U
b1110 u
b10100 <
b10100 '"
b101000000100010 C
b101000000100010 8"
b11010000010001100 =
b11010000010001100 m
1c
b1101 '
b1101 h
b1101 +"
b1001 H
b1001 S
b1001 q
b11010000010000000 B
b11010000010000000 l
b11010000010000000 4"
0g
bz D
bz b
b1101111010101111 (
b1101111010101111 |
b1101111010101111 1"
b10100 6
b10100 $"
b10100 %"
b1010 .
b101000000100010 7"
b111001111010100000010001000 >
b111001111010100000010001000 ?
b111001111010100000010001000 6"
b1110011110101000000100010 5"
b111001111011010000010000000 v
b0 X
b1100 k
b10100z F
b10 V
0p
1*"
b1111 ("
b1101 )"
b100000 W
b110100000100000 o
b110100000100000 3"
b1001 n
b101 R
b0x0xx &
b0x0xx f
b0x E
1a
0`
b1101111011101101 _
b10110 ^
b1011000 &"
0{
b1000 2"
b1011 z
b1101111010101111 y
b1110011110110100000100000 A
b1110011110110100000100000 t
b10000 #
b10000 ""
b10000 Q
b10000 r
b1000000000001110011110101000000100010 O
b1110000001110011110110100000100000000000000000000000000000000000000000110001010101000111101101000000000000000001101000001000000000000000000000000000000000100100000000000000000000000000000101 N
b0x0xx001x00z000000000000000011011110111011010000000000000000000000000001011000000000000000000000000001011000 M
b10010000000000000000000000000000000101100000000000000001101111010101111 P
1!
#10
0!
#11
b11111111111111111111111111111100 @
b11111111111111111111111111111100 x
b11111111111111111111111111111100 J
b11111111111111111111111111111100 U
b11111111111111111111111111111100 u
bx (
bx |
bx 1"
1g
b10100000010011000 =
b10100000010011000 m
b1010 '
b1010 h
b1010 +"
b110 L
b110 T
b110 Y
b10100000010001000 B
b10100000010001000 l
b10100000010001000 4"
b110100000100000 C
b110100000100000 8"
b11000 <
b11000 '"
00"
x{
b0x0xx 2"
b10110 z
bz y
b1101 &
b1101 f
b11 E
0a
b1001 _
b1110 ^
b11010000010001100 &"
b111001111010100000010001000 v
b10000 k
b1010 )"
b100010 W
b101000000100010 o
b101000000100010 3"
b1101 .
b110100000100000 7"
b111001111011010000010000000 >
b111001111011010000010000000 ?
b111001111011010000010000000 6"
b1110011110110100000100000 5"
b11000 6
b11000 $"
b11000 %"
b0x0x0xx00000000000000000000000000010110zzzzzzzzzzzzzzzzzzzzzzzzzzzzzzzz P
b1101010100z000000000000000000000000000010010000000000000000000000000000111000000000000000011010000010001100 M
b1110000001110011110101000000100010000000000000000000000000000000000001000001010101000111101010000000000000000001010000001000100000000000000000000000000000100100000000000000000000000000000101 N
b1010000000001110011110110100000100000 O
b1101011110101000000100010 A
b1101011110101000000100010 t
b10100 #
b10100 ""
b10100 Q
b10100 r
1!
#12
0!
#13
b1010100 G
0,
b111111 /
b111111 Z
b111111 !"
b1110 @
b1110 x
1i
11
b111 )
b111 j
b1110 J
b1110 U
b1110 u
b1110 (
b1110 |
b1110 1"
b11100 <
b11100 '"
b101000000100010 C
b101000000100010 8"
b11010000010010100 =
b11010000010010100 m
b1101 '
b1101 h
b1101 +"
b10 L
b10 T
b10 Y
b11010000010000000 B
b11010000010000000 l
b11010000010000000 4"
b11100 6
b11100 $"
b11100 %"
b0 9
b0 ,"
b1101 +
b1101 d
b1101 ."
b1010 .
b101000000100010 7"
b110101111010100000010001000 >
b110101111010100000010001000 ?
b110101111010100000010001000 6"
b1101011110101000000100010 5"
b111001111011010000010000000 v
b10100 k
b1101 )"
b100000 W
b110100000100000 o
b110100000100000 3"
b1010 &
b1010 f
b11111111111111111111111111111100 ^
b10100000010011000 &"
10"
1{
b1101 2"
b1110 z
b0 A
b0 t
b11000 #
b11000 ""
b11000 Q
b11000 r
b1100000000001101011110101000000100010 O
b1110000001110011110110100000100000000000000000000000000000000000000001010001010101000111101101000000000000000001101000001000000000000000000000000000000000100100000000000000000000000000000101 N
b1010010100z000000000000000000000000000010011111111111111111111111111111110000000000000000010100000010011000 M
b110110100000000000000000000000000001110zzzzzzzzzzzzzzzzzzzzzzzzzzzzzzzz P
1!
#14
b1110 9
b1110 ,"
0!
#15
b0 @
b0 x
1;
b0 J
b0 U
b0 u
b10100 =
b10100 m
b11111111111111111111111111111100 (
b11111111111111111111111111111100 |
b11111111111111111111111111111100 1"
0c
b1101 L
b1101 T
b1101 Y
b0 H
b0 S
b0 q
b0 B
b0 l
b0 4"
b0 '
b0 h
b0 +"
b1010 2"
b11111111111111111111111111111100 z
b1101 &
b1101 f
b1110 ^
b11010000010010100 &"
b100z F
b0 R
b0 W
b111111 X
b0 n
b0 o
b0 3"
b0 ("
b0 )"
b110101111010100000010001000 v
b110101011111111111111111111111111111100zzzzzzzzzzzzzzzzzzzzzzzzzzzzzzzz P
b1101010100z000000000000000000000000000010010000000000000000000000000000111000000000000000011010000010010100 M
b1101011110101000000100010001111110000000000000000000000000001010000010101000000000000000000000000000000000000000000000000000000000000000000000000000000000000000000000000000000000000 N
1!
#16
0!
#17
b101010100 G
1,
b0 /
b0 Z
b0 !"
0i
01
b0 )
b0 j
0g
b1110 (
b1110 |
b1110 1"
b0 &
b0 f
b1 E
b0 _
b0 ^
b10100 &"
b1101 2"
b1110 z
b100z000000000000000000000000000000000000000000000000000000000000000000000000000000000000000000010100 M
b110110100000000000000000000000000001110zzzzzzzzzzzzzzzzzzzzzzzzzzzzzzzz P
1!
#18
0!
#19
b101 @
b101 x
0;
b101 J
b101 U
b101 u
b0 (
b0 |
b0 1"
b10100000010100000 =
b10100000010100000 m
1c
b1010 '
b1010 h
b1010 +"
b110 L
b110 T
b110 Y
b10100000010001000 B
b10100000010001000 l
b10100000010001000 4"
b1001 H
b1001 S
b1001 q
b0 C
b0 8"
b100000 <
b100000 '"
00"
b0 2"
b0 z
b0 X
b11000 k
b10100z F
b1111 ("
b1010 )"
b100010 W
b101000000100010 o
b101000000100010 3"
b1001 n
b1110 R
b0 9
b0 ,"
b0 +
b0 d
b0 ."
b0 8
b0 -"
b0 *
b0 e
b0 /"
b0 .
b0 7"
b0 >
b0 ?
b0 6"
b0 5"
b100000 6
b100000 $"
b100000 %"
b10000000000000000000000000000000000000zzzzzzzzzzzzzzzzzzzzzzzzzzzzzzzz P
b1101000001101011110101000000100010000000000000000000000000000000000001100001010101000111101010000000000000000001010000001000100000000000000000000000000000100100000000000000000000000000001110 N
b1110000000000000000000000000000000000 O
b11100 #
b11100 ""
b11100 Q
b11100 r
1!
#20
0!
#21
b0 @
b0 x
1;
b0 J
b0 U
b0 u
b100100 <
b100100 '"
b11100 =
b11100 m
b0 '
b0 h
b0 +"
b1101 L
b1101 T
b1101 Y
b0 B
b0 l
b0 4"
b0 H
b0 S
b0 q
1g
b100100 6
b100100 $"
b100100 %"
b0 v
b11100 k
b0 ("
b0 )"
b0 W
b0 o
b0 3"
b0 n
b0 R
b1010 &
b1010 f
b11 E
b1001 _
b101 ^
b10100000010100000 &"
b100000 #
b100000 ""
b100000 Q
b100000 r
b10000000000000000000000000000000000000 O
b1110001010101000000000000000000000000000000000000000000000000000000000000000000000000000000000000000000000000000000000000 N
b1010010100z000000000000000000000000000010010000000000000000000000000000010100000000000000010100000010100000 M
1!
#22
0!
#23
b101 (
b101 |
b101 1"
b100000 =
b100000 m
b101000 <
b101000 '"
10"
b1010 2"
b101 z
b0 &
b0 f
b0 _
b0 ^
b11100 &"
b100000 k
b101000 6
b101000 $"
b101000 %"
b110101000000000000000000000000000000101zzzzzzzzzzzzzzzzzzzzzzzzzzzzzzzz P
b10100z000000000000000000000000000000000000000000000000000000000000000000000000000000000000000000011100 M
b10000001010101000000000000000000000000000000000000000000000000000000000000000000000000000000000000000000000000000000000000 N
b10010000000000000000000000000000000000 O
b100100 #
b100100 ""
b100100 Q
b100100 r
1!
#24
0!
#25
b101100 <
b101100 '"
b100100 =
b100100 m
b0 (
b0 |
b0 1"
b101100 6
b101100 $"
b101100 %"
b100100 k
b100000 &"
b0 2"
b0 z
b101000 #
b101000 ""
b101000 Q
b101000 r
b10100000000000000000000000000000000000 O
b10010001010101000000000000000000000000000000000000000000000000000000000000000000000000000000000000000000000000000000000000 N
b10100z000000000000000000000000000000000000000000000000000000000000000000000000000000000000000000100000 M
b110000000000000000000000000000000000000zzzzzzzzzzzzzzzzzzzzzzzzzzzzzzzz P
1!
#26
0!
#27
b101000 =
b101000 m
b110000 <
b110000 '"
b100100 &"
b101000 k
b110000 6
b110000 $"
b110000 %"
b10100z000000000000000000000000000000000000000000000000000000000000000000000000000000000000000000100100 M
b10100001010101000000000000000000000000000000000000000000000000000000000000000000000000000000000000000000000000000000000000 N
b10110000000000000000000000000000000000 O
b101100 #
b101100 ""
b101100 Q
b101100 r
1!
#28
0!
#29
b110100 <
b110100 '"
b101100 =
b101100 m
b110100 6
b110100 $"
b110100 %"
b101100 k
b101000 &"
b110000 #
b110000 ""
b110000 Q
b110000 r
b11000000000000000000000000000000000000 O
b10110001010101000000000000000000000000000000000000000000000000000000000000000000000000000000000000000000000000000000000000 N
b10100z000000000000000000000000000000000000000000000000000000000000000000000000000000000000000000101000 M
1!
#30
0!
#31
b110000 =
b110000 m
b111000 <
b111000 '"
b101100 &"
b110000 k
b111000 6
b111000 $"
b111000 %"
b10100z000000000000000000000000000000000000000000000000000000000000000000000000000000000000000000101100 M
b11000001010101000000000000000000000000000000000000000000000000000000000000000000000000000000000000000000000000000000000000 N
b11010000000000000000000000000000000000 O
b110100 #
b110100 ""
b110100 Q
b110100 r
1!
#32
0!
#33
b111100 <
b111100 '"
b110100 =
b110100 m
b111100 6
b111100 $"
b111100 %"
b110100 k
b110000 &"
b111000 #
b111000 ""
b111000 Q
b111000 r
b11100000000000000000000000000000000000 O
b11010001010101000000000000000000000000000000000000000000000000000000000000000000000000000000000000000000000000000000000000 N
b10100z000000000000000000000000000000000000000000000000000000000000000000000000000000000000000000110000 M
1!
#34
0!
#35
b111000 =
b111000 m
b1000000 <
b1000000 '"
b110100 &"
b111000 k
b1000000 6
b1000000 $"
b1000000 %"
b10100z000000000000000000000000000000000000000000000000000000000000000000000000000000000000000000110100 M
b11100001010101000000000000000000000000000000000000000000000000000000000000000000000000000000000000000000000000000000000000 N
b11110000000000000000000000000000000000 O
b111100 #
b111100 ""
b111100 Q
b111100 r
1!
#36
0!
#37
b1000100 <
b1000100 '"
b111100 =
b111100 m
b1000100 6
b1000100 $"
b1000100 %"
b111100 k
b111000 &"
bx A
bx t
b1000000 #
b1000000 ""
b1000000 Q
b1000000 r
b100000000000000000000000000000000000000 O
b11110001010101000000000000000000000000000000000000000000000000000000000000000000000000000000000000000000000000000000000000 N
b10100z000000000000000000000000000000000000000000000000000000000000000000000000000000000000000000111000 M
1!
#38
0!
#39
x\
bx K
bx [
x]
x5
x:
x3
x4
x,
x2
xI
bx G
x-
b1000000 =
b1000000 m
bx /
bx Z
bx !"
bx C
bx 8"
b1001000 <
b1001000 '"
b111100 &"
b1000000 k
bx 9
bx ,"
bx +
bx d
bx ."
bx 8
bx -"
bx *
bx e
bx /"
bx .
bx 0
bx }
bx 7"
b0xxxxxxxxxxxxxxxxxxxxxxxxxx00 >
bx00 ?
bx00 6"
bx 5"
b1001000 6
b1001000 $"
b1001000 %"
b10100z000000000000000000000000000000000000000000000000000000000000000000000000000000000000000000111100 M
b100000001010101000000000000000000000000000000000000000000000000000000000000000000000000000000000000000000000000000000000000 N
b1000100xxxxxxxxxxxxxxxxxxxxxxxxxxxxxxxx O
b1000100 #
b1000100 ""
b1000100 Q
b1000100 r
1!
#40
0!
#41
x;
bx J
bx U
bx u
bx @
bx x
b1001100 <
b1001100 '"
bx =
bx m
xc
bx '
bx h
bx +"
bx00 B
bx00 l
bx00 4"
bx H
bx S
bx q
b1001100 6
b1001100 $"
b1001100 %"
b0xxxxxxxxxxxxxxxxxxxxxxxxxx00 v
bx X
b1000100 k
bxz F
bx V
xp
x*"
xw
bx ("
bx )"
bx W
bx o
bx 3"
bx n
bx R
b1000000 &"
b1001000 #
b1001000 ""
b1001000 Q
b1001000 r
b1001000xxxxxxxxxxxxxxxxxxxxxxxxxxxxxxxx O
bx0000xxxxxxxxxxxxxxxxxxxxxxxxxx00xxxxxx00000000000000000000000001000100xxxxxxxxxxxxxxxxxxxxxxxxxxxxxxxxxxxxxxxxxxxxxxxxxxxxxxxxxxxxxxxxxxxxxxxxxxxxxxxxxxxxxxxxxxxxxxxxxxxxxxxxxxxxxxxxxxxx N
b10100z000000000000000000000000000000000000000000000000000000000000000000000000000000000000000001000000 M
1!
#42
0!
#43
xg
x$
bx D
bx b
bx <
bx '"
bx &
bx f
bx E
xa
x`
bx _
bx ^
bx &"
b1001000 k
b1010000 6
b1010000 $"
b1010000 %"
bxzxxxxxxxxxxxxxxxxxxxxxxxxxxxxxxxxxxxxxxxxxxxxxxxxxxxxxxxxxxxxxxxxxxxxxxxxxxxxxxxxxxxxxxxxxxxxxxxx M
bx0000xxxxxxxxxxxxxxxxxxxxxxxxxx00xxxxxx00000000000000000000000001001000xxxxxxxxxxxxxxxxxxxxxxxxxxxxxxxxxxxxxxxxxxxxxxxxxxxxxxxxxxxxxxxxxxxxxxxxxxxxxxxxxxxxxxxxxxxxxxxxxxxxxxxxxxxxxxxxxxxx N
b1001100xxxxxxxxxxxxxxxxxxxxxxxxxxxxxxxx O
b1001100 #
b1001100 ""
b1001100 Q
b1001100 r
1!
#44
0!
#45
bx (
bx |
bx 1"
bx 6
bx $"
bx %"
b1001100 k
x0"
x{
bx 2"
bx z
bx y
bx #
bx ""
bx Q
bx r
b1010000xxxxxxxxxxxxxxxxxxxxxxxxxxxxxxxx O
bx0000xxxxxxxxxxxxxxxxxxxxxxxxxx00xxxxxx00000000000000000000000001001100xxxxxxxxxxxxxxxxxxxxxxxxxxxxxxxxxxxxxxxxxxxxxxxxxxxxxxxxxxxxxxxxxxxxxxxxxxxxxxxxxxxxxxxxxxxxxxxxxxxxxxxxxxxxxxxxxxxx N
bx P
1!
#46
0!
#47
b1010000 k
bx00 >
bx0000xxxxxxxxxxxxxxxxxxxxxxxxxx00xxxxxx00000000000000000000000001010000xxxxxxxxxxxxxxxxxxxxxxxxxxxxxxxxxxxxxxxxxxxxxxxxxxxxxxxxxxxxxxxxxxxxxxxxxxxxxxxxxxxxxxxxxxxxxxxxxxxxxxxxxxxxxxxxxxxx N
bx O
1!
#48
0!
#49
bx00 v
bx k
bx00xxxxxxxxxxxxxxxxxxxxxxxxxxxxxxxxxxxxxxxxxxxxxxxxxxxxxxxxxxxxxxxxxxxxxxxxxxxxxxxxxxxxxxxxxxxxxxxxxxxxxxxxxxxxxxxxxxxxxxxxxxxxxxxxxxxxxxxxxxxxxxxxxxxxxxxxxx N
1!
0"
