Test.vcd
$date
	Sun Jun  7 20:22:45 2020
$end
$version
	Icarus Verilog
$end
$timescale
	1s
$end
$scope module PipelinedMIPS_tb $end
$var reg 1 ! Clk $end
$var reg 1 " Rst $end
$scope module MIPS_CPU $end
$var wire 1 ! Clk $end
$var wire 32 # PCout [31:0] $end
$var wire 1 $ PCsrc $end
$var wire 1 " Rst $end
$var wire 1 % branch_zero $end
$var wire 1 & memError $end
$var wire 1 ' zero_eqdet $end
$var wire 5 ( writeReg3 [4:0] $end
$var wire 5 ) writeReg2 [4:0] $end
$var wire 5 * writeReg [4:0] $end
$var wire 32 + writeData [31:0] $end
$var wire 5 , stall [4:0] $end
$var wire 5 - rtSel [4:0] $end
$var wire 5 . rsSel [4:0] $end
$var wire 1 / regWrite $end
$var wire 1 0 regDst $end
$var wire 5 1 rdSel [4:0] $end
$var wire 6 2 opCode_nop [5:0] $end
$var wire 6 3 opCode [5:0] $end
$var wire 1 4 nop $end
$var wire 1 5 memtoreg $end
$var wire 1 6 memWrite $end
$var wire 1 7 memRead $end
$var wire 1 8 jump $end
$var wire 32 9 inc4_PC [31:0] $end
$var wire 1 : iMemError $end
$var wire 1 ; hazard $end
$var wire 1 < flush $end
$var wire 32 = data2 [31:0] $end
$var wire 32 > data1 [31:0] $end
$var wire 1 ? dMemError $end
$var wire 1 @ branch $end
$var wire 1 A Zero $end
$var wire 32 B PCin [31:0] $end
$var wire 32 C Offset_add [31:0] $end
$var wire 1 D MEM_memWrite $end
$var wire 1 E MEM_memRead $end
$var wire 32 F JuOffset32 [31:0] $end
$var wire 28 G JuOffset28 [27:0] $end
$var wire 32 H JA_BA [31:0] $end
$var wire 32 I Instruction [31:0] $end
$var wire 32 J ImOffset [31:0] $end
$var wire 32 K Extdata [31:0] $end
$var wire 32 L DO [31:0] $end
$var wire 2 M ControlWire3 [1:0] $end
$var wire 4 N ControlWire2 [3:0] $end
$var wire 8 O ControlWire1 [7:0] $end
$var wire 32 P B [31:0] $end
$var wire 1 Q ALUsrc $end
$var wire 32 R ALUresult [31:0] $end
$var wire 2 S ALUOp [1:0] $end
$var wire 4 T ALUCnt [3:0] $end
$var reg 73 U EX_MEM_pipereg [72:0] $end
$var reg 120 V ID_EX_pipereg [119:0] $end
$var reg 64 W IF_ID_pipereg [63:0] $end
$var reg 71 X MEM_WB_pipereg [70:0] $end
$var reg 32 Y PC_reg [31:0] $end
$scope module ALU0 $end
$var wire 32 Z A [31:0] $end
$var wire 1 A Zero $end
$var wire 32 [ B [31:0] $end
$var wire 4 \ AluOp [3:0] $end
$var reg 32 ] ALUresult [31:0] $end
$upscope $end
$scope module ALU1 $end
$var wire 2 ^ AluOp [1:0] $end
$var wire 6 _ Funct [5:0] $end
$var wire 6 ` Imm [5:0] $end
$var reg 4 a ALUCnt [3:0] $end
$upscope $end
$scope module CUnit $end
$var wire 6 b Instruction [5:0] $end
$var wire 2 c ALUOp [1:0] $end
$var reg 1 d ALUOp0 $end
$var reg 1 e ALUOp1 $end
$var reg 1 Q ALUsrc $end
$var reg 1 @ Branch $end
$var reg 1 8 Jump $end
$var reg 1 7 MemRead $end
$var reg 1 6 MemWrite $end
$var reg 1 5 MemtoReg $end
$var reg 1 0 RegDst $end
$var reg 1 / RegWrite $end
$upscope $end
$scope module DataMemory $end
$var wire 32 f Address [31:0] $end
$var wire 1 ! Clk $end
$var wire 1 " Rst $end
$var wire 32 g WriteData [31:0] $end
$var wire 1 E memRead $end
$var wire 1 D memWrite $end
$var wire 32 h ReadData1 [31:0] $end
$var wire 32 i ReadData [31:0] $end
$var reg 1 ? DMemError $end
$upscope $end
$scope module HazUnit $end
$var wire 1 j EX_memRead $end
$var wire 1 k EX_regWen $end
$var wire 5 l ID_Rs [4:0] $end
$var wire 5 m ID_Rt [4:0] $end
$var wire 5 n MEM_Rd [4:0] $end
$var wire 1 o MEM_regWen $end
$var wire 5 p EX_Rd [4:0] $end
$var reg 1 ; hazard $end
$upscope $end
$scope module ImmAddressAdder $end
$var wire 32 q A [31:0] $end
$var wire 32 r B [31:0] $end
$var reg 32 s Result [31:0] $end
$upscope $end
$scope module InputSelectALU $end
$var wire 32 t I0 [31:0] $end
$var wire 32 u I1 [31:0] $end
$var wire 1 v Sel $end
$var wire 32 w Out [31:0] $end
$upscope $end
$scope module InstructionMemory $end
$var wire 32 x Address [31:0] $end
$var wire 1 ! Clk $end
$var wire 1 y Rst $end
$var wire 32 z Data [31:0] $end
$var reg 1 : IMemError $end
$upscope $end
$scope module JumpAddressSel $end
$var wire 32 { I0 [31:0] $end
$var wire 32 | I1 [31:0] $end
$var wire 1 @ Sel $end
$var wire 32 } Out [31:0] $end
$upscope $end
$scope module MemorySelMux $end
$var wire 32 ~ I0 [31:0] $end
$var wire 32 !" I1 [31:0] $end
$var wire 1 "" Sel $end
$var wire 32 #" Out [31:0] $end
$upscope $end
$scope module NOPinsert $end
$var wire 6 $" I0 [5:0] $end
$var wire 6 %" I1 [5:0] $end
$var wire 1 4 Sel $end
$var wire 6 &" Out [5:0] $end
$upscope $end
$scope module PCAddressIncrement $end
$var wire 32 '" A [31:0] $end
$var wire 32 (" B [31:0] $end
$var reg 32 )" Result [31:0] $end
$upscope $end
$scope module PCSelect $end
$var wire 32 *" I0 [31:0] $end
$var wire 32 +" I1 [31:0] $end
$var wire 1 $ Sel $end
$var wire 32 ," Out [31:0] $end
$upscope $end
$scope module RdRtSelRF $end
$var wire 5 -" I0 [4:0] $end
$var wire 5 ." I1 [4:0] $end
$var wire 1 /" Sel $end
$var wire 5 0" Out [4:0] $end
$upscope $end
$scope module Registers $end
$var wire 1 ! Clk $end
$var wire 1 " Rst $end
$var wire 32 1" data1 [31:0] $end
$var wire 32 2" data2 [31:0] $end
$var wire 5 3" read1 [4:0] $end
$var wire 5 4" read2 [4:0] $end
$var wire 1 5" regWen $end
$var wire 32 6" writeData [31:0] $end
$var wire 5 7" writeReg [4:0] $end
$upscope $end
$scope module Shiftby2 $end
$var wire 32 8" Out [31:0] $end
$var wire 32 9" In [31:0] $end
$upscope $end
$scope module Shiftby2Jump $end
$var wire 26 :" In [25:0] $end
$var wire 28 ;" Out [27:0] $end
$upscope $end
$scope module SignExtend $end
$var wire 16 <" In [15:0] $end
$var wire 32 =" Out [31:0] $end
$upscope $end
$scope module pipRegCntrl $end
$var wire 1 ! Clk $end
$var wire 1 E MEM_memRead $end
$var wire 1 D MEM_memWrite $end
$var wire 1 " Rst $end
$var wire 1 % branch $end
$var wire 1 ? dmemError $end
$var wire 1 >" dmemHaz $end
$var wire 1 ; hazard $end
$var wire 1 : imemError $end
$var wire 1 8 jump $end
$var wire 1 ?" memError $end
$var wire 1 @" memHaz $end
$var wire 2 A" hazType [1:0] $end
$var wire 1 < flush $end
$var reg 2 B" State [1:0] $end
$var reg 1 4 nop $end
$var reg 5 C" stall [4:0] $end
$upscope $end
$upscope $end
$upscope $end
$enddefinitions $end
#0
$dumpvars
bx C"
bx B"
b0x A"
0@"
z?"
0>"
bx ="
bx <"
bx00 ;"
bx :"
bx 9"
bx00 8"
bx 7"
bx 6"
x5"
bx 4"
bx 3"
bx 2"
bx 1"
bx 0"
x/"
bx ."
bx -"
bx ,"
bx +"
bx *"
bx )"
b100 ("
bx '"
bx &"
b111111 %"
bx $"
bx #"
x""
bx !"
bx ~
bx }
bx |
bx00 {
bx z
zy
bx x
bx w
xv
bx u
bx t
bx s
bx00 r
bx q
bx p
xo
bx n
bx m
bx l
xk
xj
bx i
bx h
bx g
bx f
xe
xd
bx c
bx b
bx a
bx `
bx _
bx ^
bx ]
bx \
bx [
bx Z
bx Y
bx X
bx W
bx V
bx U
bx T
bx S
bx R
xQ
bx P
bx O
bx N
bx M
bx L
bx K
bx00 J
bx I
bx H
bx00 G
bx00 F
xE
xD
bx C
bx B
xA
x@
0?
bx >
bx =
x<
x;
0:
bx 9
x8
x7
x6
x5
x4
bx 3
bx 2
bx 1
x0
x/
bx .
bx -
bx ,
bx +
bx *
bx )
bx (
x'
0&
x%
x$
bx #
0"
1!
$end
#1
0<
0$
0%
b0 A"
0d
b10 S
b10 c
1e
08
0@
06
07
0/
05
0Q
b10001 O
10
1A
b0 R
b0 ]
0;
b100 B
b100 ,"
b0 H
b0 }
b0 +"
b0 C
b0 s
b0 |
bz L
bz i
1'
b0 J
b0 r
b0 8"
b0 +
b0 #"
b0 6"
0o
bz h
0k
0j
b10 T
b10 \
b10 a
b0 P
b0 [
b0 w
b0 *
b0 p
b0 0"
b111111 2
b111111 b
b111111 &"
b0 K
b0 9"
b0 ="
b0 (
b0 7"
05"
b0 ~
b0 !"
0""
0E
0D
b0 M
b0 )
b0 n
b0 f
b0 g
b0 N
b0 Z
b0 ^
b0 _
b0 `
b0 t
b0 u
0v
b0 -"
b0 ."
0/"
b0 >
b0 1"
b0 .
b0 l
b0 3"
b0 =
b0 2"
b0 -
b0 m
b0 4"
b0 1
b111111 3
b111111 $"
b0 <"
b0 F
b0 {
b0 G
b0 ;"
b0 :"
b0 q
b0 X
b0 U
b0 V
b11111100000000000000000000000000 W
b100 9
b100 )"
b100 *"
b10001100111001000000000000001010 I
b10001100111001000000000000001010 z
b0 #
b0 '"
b0 Y
b0 x
1"
#2
b0 ,
b0 C"
04
b0 B"
0!
#3
b0 S
b0 c
0e
17
1/
1Q
b11000010 O
00
0'
b101000 J
b101000 r
b101000 8"
bz +
bz #"
bz 6"
b1101 T
b1101 \
b1101 a
b101100 C
b101100 s
b101100 |
b100011 2
b100011 b
b100011 &"
b1010 K
b1010 9"
b1010 ="
b11100100000000000000101000 H
b11100100000000000000101000 }
b11100100000000000000101000 +"
b1000 B
b1000 ,"
bz ~
b111111 `
b10 ^
1/"
b100 q
b10 >
b10 1"
b111 .
b111 l
b111 3"
b1101111010101111 =
b1101111010101111 2"
b100 -
b100 m
b100 4"
b100011 3
b100011 $"
b1010 <"
b11100100000000000000101000 F
b11100100000000000000101000 {
b11100100000000000000101000 G
b11100100000000000000101000 ;"
b111001000000000000001010 :"
b1000 9
b1000 )"
b1000 *"
b0zzzzzzzzzzzzzzzzzzzzzzzzzzzzzzzz X
b111111000100010000000000000000000000000000000000000000000000000000000000000000000000000000000000000000000000000000000000 V
b10010001100111001000000000000001010 W
b100010000101000000100010 I
b100010000101000000100010 z
b100 #
b100 '"
b100 Y
b100 x
1!
#4
0!
#5
b1 A"
1;
b10 S
b10 c
1e
07
15
0Q
b1010101 O
10
0A
b1100 R
b1100 ]
b10100000010001000 J
b10100000010001000 r
b10100000010001000 8"
b100 *
b100 p
b100 0"
b1100 B
b1100 ,"
b10100000010010000 C
b10100000010010000 s
b10100000010010000 |
b0 2
b0 b
b0 &"
b101000000100010 K
b101000000100010 9"
b101000000100010 ="
b10001000010100000010001000 H
b10001000010100000010001000 }
b10001000010100000010001000 +"
1k
1j
b10 T
b10 \
b10 a
b1010 P
b1010 [
b1010 w
b10111010110100001101101011011010 +
b10111010110100001101101011011010 #"
b10111010110100001101101011011010 6"
b1100 9
b1100 )"
b1100 *"
b1000 q
b1101111010101111 >
b1101111010101111 1"
b100 .
b100 l
b100 3"
b111110 =
b111110 2"
b1000 -
b1000 m
b1000 4"
b1010 1
b0 3
b0 $"
b101000000100010 <"
b10001000010100000010001000 F
b10001000010100000010001000 {
b10001000010100000010001000 G
b10001000010100000010001000 ;"
b100010000101000000100010 :"
b100011 `
b1001 N
b0 ^
1v
0/"
b100 -"
b1010 _
b1010 u
b1101111010101111 t
b10 Z
b10111010110100001101101011011010 ~
b10000001010100000000000000011 I
b10000001010100000000000000011 z
b1000 #
b1000 '"
b1000 Y
b1000 x
b100000000000100010000101000000100010 W
b100011110000100010000000000000000000000000000000000010100000000000000000110111101010111100000000000000000000000000000010 V
b10111010110100001101101011011010 X
b10111010110100001101101011011010 L
b10111010110100001101101011011010 i
1!
1&
1?
#6
0/
b10001 O
05
b111111 2
b111111 b
b111111 &"
b11 ,
b11 C"
14
b1 B"
0!
#7
b1101111001110001 R
b1101111001110001 ]
b10 A"
1@"
1>"
b1101111011101101 h
1o
0k
0j
b1010 *
b1010 p
b1010 0"
b110 T
b110 \
b110 a
b111110 P
b111110 [
b111110 w
b100 )
b100 n
1E
b10 M
b1101111010101111 g
b1100 f
b111111 `
b0 N
b10 ^
0v
1/"
b1000 -"
b1010 ."
b100010 _
b101000000100010 u
b111110 t
b1101111010101111 Z
b10010010000000000000000110111101010111100000000000000000000000000001100 U
b111111000100010100001010000000000000000001010000001000100000000000000000000000000011111000000000000000001101111010101111 V
1!
#8
1/
b1010101 O
15
b0 2
b0 b
b0 &"
b11111 ,
b11111 C"
04
b10 B"
0!
#9
b1 A"
0@"
b1101111011101101 L
b1101111011101101 i
0>"
1!
0&
0?
#10
0/
b10001 O
05
b111111 2
b111111 b
b111111 &"
b11 ,
b11 C"
14
b1 B"
0!
#11
b0 A"
0;
bz L
bz i
b1101111011101101 +
b1101111011101101 #"
b1101111011101101 6"
0o
bz h
15"
b100 (
b100 7"
b1100 !"
b1101111011101101 ~
b1010 )
b1010 n
0E
b0 M
b111110 g
b1101111001110001 f
b10001000000000000000000000000000000110000000000000000001101111011101101 X
b101000000000000000000000000000000011111000000000000000001101111001110001 U
1!
#12
1/
b1010101 O
15
b0 2
b0 b
b0 &"
b0 ,
b0 C"
04
b1101111011101101 >
b1101111011101101 1"
b0 B"
0!
#13
b1 A"
1d
b1 S
b1 c
0e
1@
0/
x5
b1x0x O
x0
1;
b1101111010101111 R
b1101111010101111 ]
b1100 J
b1100 r
b1100 8"
b10000 B
b10000 ,"
b11000 C
b11000 s
b11000 |
b100 2
b100 b
b100 &"
b11 K
b11 9"
b11 ="
b11000 H
b11000 }
b11000 +"
1k
bz +
bz #"
bz 6"
b10000 9
b10000 )"
b10000 *"
b1100 q
b1010 >
b1010 1"
b1 .
b1 l
b1 3"
b0 =
b0 2"
b1010 -
b1010 m
b1010 4"
b0 1
b100 3
b100 $"
b11 <"
b101010000000000000001100 F
b101010000000000000001100 {
b101010000000000000001100 G
b101010000000000000001100 ;"
b1010100000000000000011 :"
b0 `
b1010 N
b1101111011101101 Z
05"
b1010 (
b1010 7"
b1101111001110001 !"
bz ~
b1010001010110000000100100 I
b1010001010110000000100100 z
b1100 #
b1100 '"
b1100 Y
b1100 x
b110000010000001010100000000000000011 W
b10101010100001010000000000000000001010000001000100000000000000000000000000011111000000000000000001101111011101101 V
b101000000000000000001101111001110001zzzzzzzzzzzzzzzzzzzzzzzzzzzzzzzz X
1!
#14
b101010000000000000001100 H
b101010000000000000001100 }
b101010000000000000001100 +"
0d
b10 S
b10 c
1e
0@
05
b10001 O
10
b111111 2
b111111 b
b111111 &"
b11 ,
b11 C"
14
b1 B"
0!
#15
1A
b0 R
b0 ]
1o
0k
b0 *
b0 p
b0 0"
bz T
bz \
bz a
b0 P
b0 [
b0 w
b11 M
b1101111010101111 f
b111111 `
b0 N
b1010 -"
b0 ."
b11 _
b11 u
b0 t
b1010 Z
b101010100000000000000000000000000011111000000000000000001101111010101111 U
b111111000100010101000000000000000000000000000000000000110000000000000000000000000000000000000000000000000000000000001010 V
1!
#16
0!
#17
b0 A"
0;
b1101111010101111 +
b1101111010101111 #"
b1101111010101111 6"
0o
b0 )
b0 n
b0 M
b0 g
b0 f
15"
1""
b1101111010101111 !"
b0 U
b110101000000000000000001101111010101111zzzzzzzzzzzzzzzzzzzzzzzzzzzzzzzz X
1!
#18
b11000 H
b11000 }
b11000 +"
1d
b1 S
b1 c
0e
1@
x5
b1x0x O
x0
b100 2
b100 b
b100 &"
b0 ,
b0 C"
04
b0 B"
b1101111010101111 =
b1101111010101111 2"
0!
#19
0A
b11111111111111110010000101011011 R
b11111111111111110010000101011011 ]
0d
b10 S
b10 c
1e
0@
1/
15
b1010101 O
10
b0x0x0 *
b0x0x0 p
b0x0x0 0"
b101000101011000000010010000 H
b101000101011000000010010000 }
b101000101011000000010010000 +"
b11000000010010000 J
b11000000010010000 r
b11000000010010000 8"
bz +
bz #"
bz 6"
b110 T
b110 \
b110 a
b1101111010101111 P
b1101111010101111 [
b1101111010101111 w
b11000000010100000 C
b11000000010100000 s
b11000000010100000 |
b0 2
b0 b
b0 &"
b110000000100100 K
b110000000100100 9"
b110000000100100 ="
b10100 B
b10100 ,"
05"
0""
b0 (
b0 7"
b0 !"
b100 `
b0x0 N
b1 ^
x/"
b1101111010101111 t
b10000 q
b1101111010101111 >
b1101111010101111 1"
b1010 .
b1010 l
b1010 3"
b1001 =
b1001 2"
b101 -
b101 m
b101 4"
b1100 1
b0 3
b0 $"
b110000000100100 <"
b101000101011000000010010000 F
b101000101011000000010010000 {
b101000101011000000010010000 G
b101000101011000000010010000 ;"
b1010001010110000000100100 :"
b10100 9
b10100 )"
b10100 *"
b0zzzzzzzzzzzzzzzzzzzzzzzzzzzzzzzz X
b10000001x0x0101000000000000000000000000000000000000110000000000000000110111101010111100000000000000000000000000001010 V
b1000000000001010001010110000000100100 W
b1100001010110100000100101 I
b1100001010110100000100101 z
b10000 #
b10000 '"
b10000 Y
b10000 x
1!
#20
0!
#21
b1 A"
1;
0A
b1001 R
b1001 ]
b11010000010010100 J
b11010000010010100 r
b11010000010010100 8"
b11000 B
b11000 ,"
b11010000010101000 C
b11010000010101000 s
b11010000010101000 |
b110100000100101 K
b110100000100101 9"
b110100000100101 ="
b110000101011010000010010100 H
b110000101011010000010010100 }
b110000101011010000010010100 +"
1k
b1100 *
b1100 p
b1100 0"
b0 T
b0 \
b0 a
b1001 P
b1001 [
b1001 w
b11000 9
b11000 )"
b11000 *"
b10100 q
b0 >
b0 1"
b1100 .
b1100 l
b1100 3"
b1101 1
b110100000100101 <"
b110000101011010000010010100 F
b110000101011010000010010100 {
b110000101011010000010010100 G
b110000101011010000010010100 ;"
b1100001010110100000100101 :"
b0 `
b1010 N
b10 ^
1/"
b101 -"
b1100 ."
b100100 _
b110000000100100 u
b1001 t
b1101111010101111 Z
b0x0x0 )
b0x0x0 n
b0x M
b1101111010101111 g
b11111111111111110010000101011011 f
b1100001010111000000101010 I
b1100001010111000000101010 z
b10100 #
b10100 '"
b10100 Y
b10100 x
b1010000000001100001010110100000100101 W
b10101010010101100000000000000000001100000001001000000000000000000000000000000100100000000000000001101111010101111 V
b0x0x000x00000000000000000110111101010111111111111111111110010000101011011 U
1!
#22
0/
b10001 O
05
b111111 2
b111111 b
b111111 &"
b11 ,
b11 C"
14
b1 B"
0!
#23
0A
b1001 R
b1001 ]
bx +
bx #"
bx 6"
1o
0k
b1101 *
b1101 p
b1101 0"
b1 T
b1 \
b1 a
x""
b0x0x0 (
b0x0x0 7"
b11111111111111110010000101011011 !"
b1100 )
b1100 n
b11 M
b1001 g
b1001 f
b111111 `
b0 N
b1101 ."
b100101 _
b110100000100101 u
b0 Z
b0x0x0x011111111111111110010000101011011zzzzzzzzzzzzzzzzzzzzzzzzzzzzzzzz X
b110010100000000000000000000000000000100100000000000000000000000000001001 U
b111111000100010010101101000000000000000001101000001001010000000000000000000000000000100100000000000000000000000000000000 V
1!
#24
0!
#25
b0 A"
0;
b1001 +
b1001 #"
b1001 6"
0o
b1101 )
b1101 n
b0 M
15"
1""
b1100 (
b1100 7"
b1001 !"
b110100000000000000000000000000000000100100000000000000000000000000001001 U
b110110000000000000000000000000000001001zzzzzzzzzzzzzzzzzzzzzzzzzzzzzzzz X
1!
#26
1/
b1010101 O
15
b0 2
b0 b
b0 &"
b0 ,
b0 C"
04
1'
b0 B"
b1001 >
b1001 1"
0!
#27
bz +
bz #"
bz 6"
b11100000010101000 J
b11100000010101000 r
b11100000010101000 8"
1k
b11100000011000000 C
b11100000011000000 s
b11100000011000000 |
b111000000101010 K
b111000000101010 9"
b111000000101010 ="
b110000101011100000010101000 H
b110000101011100000010101000 }
b110000101011100000010101000 +"
b11100 B
b11100 ,"
05"
0""
b1101 (
b1101 7"
b0 `
b1010 N
b1001 Z
b11000 q
b1110 1
b111000000101010 <"
b110000101011100000010101000 F
b110000101011100000010101000 {
b110000101011100000010101000 G
b110000101011100000010101000 ;"
b1100001010111000000101010 :"
b11100 9
b11100 )"
b11100 *"
b110100000000000000000000000000001001zzzzzzzzzzzzzzzzzzzzzzzzzzzzzzzz X
b10101010010101101000000000000000001101000001001010000000000000000000000000000100100000000000000000000000000001001 V
b1100000000001100001010111000000101010 W
b10001100110001000000000000001010 I
b10001100110001000000000000001010 z
b11000 #
b11000 '"
b11000 Y
b11000 x
1!
#28
0!
#29
b0 S
b0 c
0e
17
05
1Q
b11000010 O
00
1A
b0 R
b0 ]
0'
b101000 J
b101000 r
b101000 8"
b100000 B
b100000 ,"
b1000100 C
b1000100 s
b1000100 |
b100011 2
b100011 b
b100011 &"
b1010 K
b1010 9"
b1010 ="
b11000100000000000000101000 H
b11000100000000000000101000 }
b11000100000000000000101000 +"
b1110 *
b1110 p
b1110 0"
b111 T
b111 \
b111 a
1o
b100000 9
b100000 )"
b100000 *"
b11100 q
b110 >
b110 1"
b110 .
b110 l
b110 3"
b1101111011101101 =
b1101111011101101 2"
b100 -
b100 m
b100 4"
b0 1
b100011 3
b100011 $"
b1010 <"
b11000100000000000000101000 F
b11000100000000000000101000 {
b11000100000000000000101000 G
b11000100000000000000101000 ;"
b110001000000000000001010 :"
b1110 ."
b101010 _
b111000000101010 u
b11 M
b1000000000000000000000000000 I
b1000000000000000000000000000 z
b11100 #
b11100 '"
b11100 Y
b11100 x
b1110010001100110001000000000000001010 W
b10101010010101110000000000000000001110000001010100000000000000000000000000000100100000000000000000000000000001001 V
b110110100000000000000000000000000000100100000000000000000000000000001001 U
1!
#30
0!
#31
1<
1$
xd
bx S
bx c
xe
18
07
z/
x5
xQ
bxz0xxx0x O
x0
0A
b10000 R
b10000 ]
b1001 +
b1001 #"
b1001 6"
1'
b0 J
b0 r
b0 8"
1j
b100 *
b100 p
b100 0"
b10 T
b10 \
b10 a
b1010 P
b1010 [
b1010 w
b100000 C
b100000 s
b100000 |
b10 2
b10 b
b10 &"
b0 K
b0 9"
b0 ="
b0 H
b0 }
b0 +"
b0 B
b0 ,"
15"
1""
b1110 )
b1110 n
b0 f
b100011 `
b1001 N
b0 ^
1v
0/"
b100 -"
b0 ."
b1010 _
b1010 u
b1101111011101101 t
b110 Z
b100000 q
b0 >
b0 1"
b0 .
b0 l
b0 3"
b0 =
b0 2"
b0 -
b0 m
b0 4"
b10 3
b10 $"
b0 <"
b0 F
b0 {
b0 G
b0 ;"
b0 :"
b100100 9
b100100 )"
b100100 *"
b110110100000000000000000000000000001001zzzzzzzzzzzzzzzzzzzzzzzzzzzzzzzz X
b111010100000000000000000000000000000100100000000000000000000000000000000 U
b100011110000100010000000000000000000000000000000000010100000000000000000110111101110110100000000000000000000000000000110 V
b10000000001000000000000000000000000000 W
b10101100011001000000000000001010 I
b10101100011001000000000000001010 z
b100000 #
b100000 '"
b100000 Y
b100000 x
1!
#32
0!
#33
b100 B
b100 ,"
0<
0$
0d
b10 S
b10 c
1e
08
0/
05
0Q
b10001 O
10
1A
b0 R
b0 ]
b1111111011101101 L
b1111111011101101 i
b0 C
b0 s
b0 |
b111111 2
b111111 b
b111111 &"
zk
0j
b0 *
b0 p
b0 0"
b0 P
b0 [
b0 w
b1111111011101101 h
b0 +
b0 #"
b0 6"
b100 9
b100 )"
b100 *"
b0 q
b111111 3
b111111 $"
b10 `
bz0x0 N
bx ^
xv
x/"
b0 -"
b0 _
b0 u
b0 t
b0 Z
b100 )
b100 n
1E
b10 M
b1101111011101101 g
b10000 f
b1110 (
b1110 7"
b0 !"
b10001100111001000000000000001010 I
b10001100111001000000000000001010 z
b0 #
b0 '"
b0 Y
b0 x
b11111100000000000000000000000000 W
b10xz0xxx0x0000000000000000000000000000000000000000000000000000000000000000000000000000000000000000000000000000000000 V
b10010010000000000000000110111101110110100000000000000000000000000010000 U
b110111000000000000000000000000000000000zzzzzzzzzzzzzzzzzzzzzzzzzzzzzzzz X
1!
#34
0!
#35
b0 S
b0 c
0e
17
1/
1Q
b11000010 O
00
bz L
bz i
0'
b101000 J
b101000 r
b101000 8"
b1111111011101101 +
b1111111011101101 #"
b1111111011101101 6"
zo
bz h
0k
b1101 T
b1101 \
b1101 a
b101100 C
b101100 s
b101100 |
b100011 2
b100011 b
b100011 &"
b1010 K
b1010 9"
b1010 ="
b11100100000000000000101000 H
b11100100000000000000101000 }
b11100100000000000000101000 +"
b1000 B
b1000 ,"
0""
b100 (
b100 7"
b10000 !"
b1111111011101101 ~
b0 )
b0 n
0E
bzx M
b0 g
b0 f
b111111 `
b0 N
b10 ^
0v
1/"
b100 q
b10 >
b10 1"
b111 .
b111 l
b111 3"
b1101111011101101 =
b1101111011101101 2"
b100 -
b100 m
b100 4"
b100011 3
b100011 $"
b1010 <"
b11100100000000000000101000 F
b11100100000000000000101000 {
b11100100000000000000101000 G
b11100100000000000000101000 ;"
b111001000000000000001010 :"
b1000 9
b1000 )"
b1000 *"
b10001000000000000000000000000000001000000000000000000001111111011101101 X
b0z0x00000000000000000000000000000000000000000000000000000000000000000 U
b111111000100010000000000000000000000000000000000000000000000000000000000000000000000000000000000000000000000000000000000 V
b10010001100111001000000000000001010 W
b100010000101000000100010 I
b100010000101000000100010 z
b100 #
b100 '"
b100 Y
b100 x
1!
#36
b1111111011101101 =
b1111111011101101 2"
0!
#37
b1 A"
1;
b10 S
b10 c
1e
07
15
0Q
b1010101 O
10
0A
b1100 R
b1100 ]
b10100000010001000 J
b10100000010001000 r
b10100000010001000 8"
b100 *
b100 p
b100 0"
b1100 B
b1100 ,"
b10100000010010000 C
b10100000010010000 s
b10100000010010000 |
b0 2
b0 b
b0 &"
b101000000100010 K
b101000000100010 9"
b101000000100010 ="
b10001000010100000010001000 H
b10001000010100000010001000 }
b10001000010100000010001000 +"
1k
1j
b10 T
b10 \
b10 a
b1010 P
b1010 [
b1010 w
0o
bx +
bx #"
bx 6"
b1100 9
b1100 )"
b1100 *"
b1000 q
b1111111011101101 >
b1111111011101101 1"
b100 .
b100 l
b100 3"
b111110 =
b111110 2"
b1000 -
b1000 m
b1000 4"
b1010 1
b0 3
b0 $"
b101000000100010 <"
b10001000010100000010001000 F
b10001000010100000010001000 {
b10001000010100000010001000 G
b10001000010100000010001000 ;"
b100010000101000000100010 :"
b100011 `
b1001 N
b0 ^
1v
0/"
b100 -"
b1010 _
b1010 u
b1111111011101101 t
b10 Z
b0 M
z5"
x""
b0 (
b0 7"
b0 !"
bz ~
b10000001010100000000000000011 I
b10000001010100000000000000011 z
b1000 #
b1000 '"
b1000 Y
b1000 x
b100000000000100010000101000000100010 W
b100011110000100010000000000000000000000000000000000010100000000000000000111111101110110100000000000000000000000000000010 V
b0 U
bzx0000000000000000000000000000000000000zzzzzzzzzzzzzzzzzzzzzzzzzzzzzzzz X
1!
#38
0/
b10001 O
05
b111111 2
b111111 b
b111111 &"
b11 ,
b11 C"
14
b1 B"
0!
#39
b1111111010101111 R
b1111111010101111 ]
bz +
bz #"
bz 6"
b1101111011101101 L
b1101111011101101 i
b1101111011101101 h
1o
0k
0j
b1010 *
b1010 p
b1010 0"
b110 T
b110 \
b110 a
b111110 P
b111110 [
b111110 w
05"
0""
b100 )
b100 n
1E
b10 M
b1111111011101101 g
b1100 f
b111111 `
b0 N
b10 ^
0v
1/"
b1000 -"
b1010 ."
b100010 _
b101000000100010 u
b111110 t
b1111111011101101 Z
b0zzzzzzzzzzzzzzzzzzzzzzzzzzzzzzzz X
b10010010000000000000000111111101110110100000000000000000000000000001100 U
b111111000100010100001010000000000000000001010000001000100000000000000000000000000011111000000000000000001111111011101101 V
1!
#40
0!
#41
b0 A"
0;
bz L
bz i
0o
bz h
b1101111011101101 +
b1101111011101101 #"
b1101111011101101 6"
b1010 )
b1010 n
0E
b0 M
b111110 g
b1111111010101111 f
15"
b100 (
b100 7"
b1100 !"
b1101111011101101 ~
b101000000000000000000000000000000011111000000000000000001111111010101111 U
b10001000000000000000000000000000000110000000000000000001101111011101101 X
1!
#42
1/
b1010101 O
15
b0 2
b0 b
b0 &"
b0 ,
b0 C"
04
b0 B"
b1101111011101101 >
b1101111011101101 1"
0!
#43
b1 A"
1;
1d
b1 S
b1 c
0e
1@
0/
x5
b1x0x O
x0
b1101111010101111 R
b1101111010101111 ]
b1100 J
b1100 r
b1100 8"
bz +
bz #"
bz 6"
1k
b11000 C
b11000 s
b11000 |
b100 2
b100 b
b100 &"
b11 K
b11 9"
b11 ="
b11000 H
b11000 }
b11000 +"
b10000 B
b10000 ,"
05"
b1010 (
b1010 7"
b1111111010101111 !"
bz ~
b0 `
b1010 N
b1101111011101101 Z
b1100 q
b1010 >
b1010 1"
b1 .
b1 l
b1 3"
b1101111010101111 =
b1101111010101111 2"
b1010 -
b1010 m
b1010 4"
b0 1
b100 3
b100 $"
b11 <"
b101010000000000000001100 F
b101010000000000000001100 {
b101010000000000000001100 G
b101010000000000000001100 ;"
b1010100000000000000011 :"
b10000 9
b10000 )"
b10000 *"
b101000000000000000001111111010101111zzzzzzzzzzzzzzzzzzzzzzzzzzzzzzzz X
b10101010100001010000000000000000001010000001000100000000000000000000000000011111000000000000000001101111011101101 V
b110000010000001010100000000000000011 W
b1010001010110000000100100 I
b1010001010110000000100100 z
b1100 #
b1100 '"
b1100 Y
b1100 x
1!
#44
b101010000000000000001100 H
b101010000000000000001100 }
b101010000000000000001100 +"
0d
b10 S
b10 c
1e
0@
05
b10001 O
10
b111111 2
b111111 b
b111111 &"
b11 ,
b11 C"
14
b1 B"
0!
