Test.vcd
$date
	Wed Jun  3 20:23:05 2020
$end
$version
	Icarus Verilog
$end
$timescale
	1s
$end
$scope module PipelinedMIPS_tb $end
$var reg 1 ! Clk $end
$var reg 1 " Rst $end
$scope module P5SMIPS $end
$var wire 1 ! Clk $end
$var wire 32 # PCout [31:0] $end
$var wire 1 $ PCsrc $end
$var wire 1 " Rst $end
$var wire 1 % zero_eqdet $end
$var wire 5 & writeReg3 [4:0] $end
$var wire 5 ' writeReg2 [4:0] $end
$var wire 5 ( writeReg [4:0] $end
$var wire 32 ) writeData [31:0] $end
$var wire 5 * stall [4:0] $end
$var wire 5 + rtSel [4:0] $end
$var wire 5 , rsSel [4:0] $end
$var wire 1 - regWrite $end
$var wire 1 . regDst $end
$var wire 5 / rdSel [4:0] $end
$var wire 6 0 opCode_nop [5:0] $end
$var wire 6 1 opCode [5:0] $end
$var wire 1 2 nop $end
$var wire 1 3 memtoreg $end
$var wire 1 4 memWrite $end
$var wire 1 5 memRead $end
$var wire 1 6 jump $end
$var wire 32 7 inc4_PC [31:0] $end
$var wire 1 8 flushIF $end
$var wire 32 9 data2 [31:0] $end
$var wire 32 : data1 [31:0] $end
$var wire 1 ; branch $end
$var wire 1 < Zero $end
$var wire 32 = PCin [31:0] $end
$var wire 32 > Offset_add [31:0] $end
$var wire 32 ? JuOffset32 [31:0] $end
$var wire 28 @ JuOffset28 [27:0] $end
$var wire 32 A JA_BA [31:0] $end
$var wire 32 B Instruction [31:0] $end
$var wire 32 C ImOffset [31:0] $end
$var wire 32 D Extdata [31:0] $end
$var wire 32 E DO [31:0] $end
$var wire 2 F ControlWire3 [1:0] $end
$var wire 4 G ControlWire2 [3:0] $end
$var wire 8 H ControlWire1 [7:0] $end
$var wire 32 I B [31:0] $end
$var wire 1 J ALUsrc $end
$var wire 32 K ALUresult [31:0] $end
$var wire 2 L ALUOp [1:0] $end
$var wire 4 M ALUCnt [3:0] $end
$var reg 73 N EX_MEM_pipereg [72:0] $end
$var reg 152 O ID_EX_pipereg [151:0] $end
$var reg 64 P IF_ID_pipereg [63:0] $end
$var reg 71 Q MEM_WB_pipereg [70:0] $end
$var reg 32 R PC_reg [31:0] $end
$scope module ALU0 $end
$var wire 32 S A [31:0] $end
$var wire 1 < Zero $end
$var wire 32 T B [31:0] $end
$var wire 4 U AluOp [3:0] $end
$var reg 32 V ALUresult [31:0] $end
$upscope $end
$scope module ALU1 $end
$var wire 2 W AluOp [1:0] $end
$var wire 6 X Funct [5:0] $end
$var wire 6 Y Imm [5:0] $end
$var reg 4 Z ALUCnt [3:0] $end
$upscope $end
$scope module CUnit $end
$var wire 6 [ Instruction [5:0] $end
$var wire 2 \ ALUOp [1:0] $end
$var reg 1 ] ALUOp0 $end
$var reg 1 ^ ALUOp1 $end
$var reg 1 J ALUsrc $end
$var reg 1 ; Branch $end
$var reg 1 6 Jump $end
$var reg 1 5 MemRead $end
$var reg 1 4 MemWrite $end
$var reg 1 3 MemtoReg $end
$var reg 1 . RegDst $end
$var reg 1 - RegWrite $end
$upscope $end
$scope module DataMemory $end
$var wire 32 _ Address [31:0] $end
$var wire 1 ! Clk $end
$var wire 1 " Rst $end
$var wire 32 ` WriteData [31:0] $end
$var wire 1 a memRead $end
$var wire 1 b memWrite $end
$var wire 32 c ReadData [31:0] $end
$upscope $end
$scope module EQDT $end
$var wire 32 d data2 [31:0] $end
$var wire 32 e data1 [31:0] $end
$var reg 1 % zero_eqdet $end
$upscope $end
$scope module HazUnit $end
$var wire 1 f EX_MEM_regWen $end
$var wire 5 g ID_EX_Rs [4:0] $end
$var wire 5 h ID_EX_Rt [4:0] $end
$var wire 5 i MEM_WB_Rd [4:0] $end
$var wire 1 j MEM_WB_regWen $end
$var wire 1 " Rst $end
$var wire 5 k EX_MEM_Rd [4:0] $end
$var reg 1 l Hazflag $end
$var reg 1 8 flushIF $end
$var reg 1 2 nop $end
$var reg 5 m stall [4:0] $end
$upscope $end
$scope module ImmAddressAdder $end
$var wire 32 n A [31:0] $end
$var wire 32 o B [31:0] $end
$var reg 32 p Result [31:0] $end
$upscope $end
$scope module InputSelectALU $end
$var wire 32 q I0 [31:0] $end
$var wire 32 r I1 [31:0] $end
$var wire 1 s Sel $end
$var wire 32 t Out [31:0] $end
$upscope $end
$scope module InstructionMemory $end
$var wire 32 u Address [31:0] $end
$var wire 1 ! Clk $end
$var wire 1 v Rst $end
$var wire 32 w Data [31:0] $end
$upscope $end
$scope module JumpAddressSel $end
$var wire 32 x I0 [31:0] $end
$var wire 32 y I1 [31:0] $end
$var wire 1 ; Sel $end
$var wire 32 z Out [31:0] $end
$upscope $end
$scope module MemorySelMux $end
$var wire 32 { I0 [31:0] $end
$var wire 32 | I1 [31:0] $end
$var wire 1 } Sel $end
$var wire 32 ~ Out [31:0] $end
$upscope $end
$scope module NOPinsert $end
$var wire 6 !" I0 [5:0] $end
$var wire 6 "" I1 [5:0] $end
$var wire 1 2 Sel $end
$var wire 6 #" Out [5:0] $end
$upscope $end
$scope module PCAddressIncrement $end
$var wire 32 $" A [31:0] $end
$var wire 32 %" B [31:0] $end
$var reg 32 &" Result [31:0] $end
$upscope $end
$scope module PCSelect $end
$var wire 32 '" I0 [31:0] $end
$var wire 32 (" I1 [31:0] $end
$var wire 1 $ Sel $end
$var wire 32 )" Out [31:0] $end
$upscope $end
$scope module RdRtSelRF $end
$var wire 5 *" I0 [4:0] $end
$var wire 5 +" I1 [4:0] $end
$var wire 1 ," Sel $end
$var wire 5 -" Out [4:0] $end
$upscope $end
$scope module Registers $end
$var wire 1 ! Clk $end
$var wire 1 " Rst $end
$var wire 32 ." data1 [31:0] $end
$var wire 32 /" data2 [31:0] $end
$var wire 5 0" read1 [4:0] $end
$var wire 5 1" read2 [4:0] $end
$var wire 1 2" regWen $end
$var wire 32 3" writeData [31:0] $end
$var wire 5 4" writeReg [4:0] $end
$upscope $end
$scope module Shiftby2 $end
$var wire 32 5" Out [31:0] $end
$var wire 32 6" In [31:0] $end
$upscope $end
$scope module Shiftby2Jump $end
$var wire 26 7" In [25:0] $end
$var wire 28 8" Out [27:0] $end
$upscope $end
$scope module SignExtend $end
$var wire 16 9" In [15:0] $end
$var wire 32 :" Out [31:0] $end
$upscope $end
$upscope $end
$upscope $end
$enddefinitions $end
#0
$dumpvars
bx :"
bx 9"
bx00 8"
bx 7"
bx 6"
bx00 5"
bx 4"
bx 3"
x2"
bx 1"
bx 0"
bx /"
bx ."
b0 -"
x,"
b0 +"
b0 *"
bx )"
bx ("
bx '"
bx &"
b100 %"
bx $"
bx #"
b111111 ""
bx !"
bx ~
x}
bx |
bx {
bx z
bx y
b0 x
bx w
zv
bx u
b0 t
xs
b0 r
b0 q
bx p
bx00 o
bx n
b0 m
0l
b0 k
xj
bx i
bx h
bx g
xf
bx e
bx d
bx c
xb
xa
bx `
bx _
x^
x]
bx \
bx [
bx Z
b0 Y
b0 X
bx W
b0 V
bx U
b0 T
b0 S
bx R
bx Q
bx P
b0xxxxxxxx0000000000000000000000000000000000000000000000000000000000000000000000000000000000000000000000000000000000 O
bx N
bx M
bx L
b0 K
xJ
b0 I
bx H
bx G
bx F
bx E
bx D
bx00 C
bx B
bx A
bx00 @
bx00 ?
bx >
bx =
1<
x;
bx :
bx 9
x8
bx 7
x6
x5
x4
x3
02
bx 1
bx 0
bx /
x.
x-
bx ,
bx +
b0 *
bx )
b0 (
bx '
bx &
x%
x$
bx #
0"
1!
$end
#1
b100 =
b100 )"
b0 A
b0 z
0$
0]
b10 L
b10 \
1^
06
0;
04
05
1-
13
0J
b1010101 H
1.
b0 >
b0 p
b0 C
b0 o
b0 5"
b0 )
b0 ~
b0 3"
0j
bz E
bz c
0f
b10 M
b10 U
b10 Z
1%
b0 0
b0 [
b0 #"
b0 D
b0 6"
b0 :"
b0 &
b0 4"
02"
b0 {
b0 |
0}
b0 F
b0 '
b0 i
b0 _
b0 `
0b
0a
b0 G
b0 W
0s
0,"
b0 :
b0 e
b0 ."
b0 ,
b0 g
b0 0"
b0 9
b0 d
b0 /"
b0 +
b0 h
b0 1"
b0 /
b0 1
b0 !"
b0 9"
b0 ?
b0 @
b0 8"
b0 7"
b0 n
b0 Q
b0 N
b0 O
b0 P
b100 7
b100 &"
b100 '"
b10001101001010000000000000001010 B
b10001101001010000000000000001010 w
b0 #
b0 $"
b0 R
b0 u
1"
#2
0!
#3
b0 L
b0 \
0^
15
03
1J
b11000010 H
0.
b101000 C
b101000 o
b101000 5"
bz )
bz ~
bz 3"
1f
b1101 M
b1101 U
b1101 Z
b101100 >
b101100 p
0%
b100011 0
b100011 [
b100011 #"
b1010 D
b1010 6"
b1010 :"
b1000 =
b1000 )"
bz {
b1010 G
b10 W
1,"
b100 n
b1 :
b1 e
b1 ."
b1001 ,
b1001 g
b1001 0"
b1000 +
b1000 h
b1000 1"
b100011 1
b100011 !"
b1010 9"
b100101000000000000000101000 ?
b100101000000000000000101000 @
b100101000000000000000101000 8"
b1001010000000000000001010 7"
b1000 7
b1000 &"
b1000 '"
b0zzzzzzzzzzzzzzzzzzzzzzzzzzzzzzzz Q
b10101010000000000000000000000000000000000000000000000000000000000000000000000000000000000000000000000000000000000 O
b10010001101001010000000000000001010 P
b10101101100010110000000000010100 B
b10101101100010110000000000010100 w
b100 #
b100 $"
b100 R
b100 u
1!
#4
0!
#5
b1011 A
b1011 z
14
05
0-
x3
b10100x0x H
x.
0<
b1011 K
b1011 V
b1011 x
b1010000 C
b1010000 o
b1010000 5"
b1010 I
b1010 T
b1010 t
b1000 (
b1000 k
b1000 -"
b1100 =
b1100 )"
b1011000 >
b1011000 p
b101011 0
b101011 [
b101011 #"
b10100 D
b10100 6"
b10100 :"
b10 M
b10 U
b10 Z
1j
b1100 7
b1100 &"
b1100 '"
b1000 n
b10 :
b10 e
b10 ."
b1100 ,
b1100 g
b1100 0"
b1101111011101101 9
b1101111011101101 d
b1101111011101101 /"
b1011 +
b1011 h
b1011 1"
b101011 1
b101011 !"
b10100 9"
b110001011000000000001010000 ?
b110001011000000000001010000 @
b110001011000000000001010000 8"
b1100010110000000000010100 7"
b100011 Y
b1001 G
b0 W
1s
0,"
b1000 *"
b1010 X
b1010 r
b1 S
b11 F
b1110011110110100000100000 B
b1110011110110100000100000 w
b1000 #
b1000 $"
b1000 R
b1000 u
b100010101101100010110000000000010100 P
b100011110000100100000000000000000000000000000000000010100000000000000000000000000000000000000000000000000000000000000001 O
b10100000000000000000000000000000000000000000000000000000000000000000 N
1!
#6
0!
#7
b10110 A
b10110 z
b10 L
b10 \
1^
04
1-
13
0J
b1010101 H
1.
b10110 K
b10110 V
b10110 x
b0 )
b0 ~
b0 3"
b11010000010000000 C
b11010000010000000 o
b11010000010000000 5"
b1101111010101111 E
b1101111010101111 c
0f
b0x0xx (
b0x0xx k
b0x0xx -"
b10100 I
b10100 T
b10100 t
b11010000010001100 >
b11010000010001100 p
b0 0
b0 [
b0 #"
b110100000100000 D
b110100000100000 6"
b110100000100000 :"
b10000 =
b10000 )"
12"
1}
b1000 '
b1000 i
b10 F
1a
b1011 _
b101011 Y
b1x0 G
x,"
b1011 *"
b10100 X
b10100 r
b1101111011101101 q
b10 S
b1100 n
b101 :
b101 e
b101 ."
b1110 ,
b1110 g
b1110 0"
b1001 9
b1001 d
b1001 /"
b1111 +
b1111 h
b1111 1"
b1101 /
b0 1
b0 !"
b110100000100000 9"
b111001111011010000010000000 ?
b111001111011010000010000000 @
b111001111011010000010000000 8"
b1110011110110100000100000 7"
b10000 7
b10000 &"
b10000 '"
b110000000000000000000000000000000000000zzzzzzzzzzzzzzzzzzzzzzzzzzzzzzzz Q
b100010010000000000000000000000000000000000000000000000000000000000001011 N
b101110101110100x0x0101100000000000000000000000000000000101000000000000000000110111101110110100000000000000000000000000000010 O
b110000000001110011110110100000100000 P
b1101011110101000000100010 B
b1101011110101000000100010 w
b1100 #
b1100 $"
b1100 R
b1100 u
1!
#8
0!
#9
b10101 H
0-
b111111 0
b111111 [
b111111 #"
b1110 A
b1110 z
1l
12
b111 *
b111 m
b1110 K
b1110 V
b1110 x
b10100000010001000 C
b10100000010001000 o
b10100000010001000 5"
b10100 =
b10100 )"
b10100000010011000 >
b10100000010011000 p
b101000000100010 D
b101000000100010 6"
b101000000100010 :"
1f
b1101 (
b1101 k
b1101 -"
b1001 I
b1001 T
b1001 t
0j
bz E
bz c
b1101111010101111 )
b1101111010101111 ~
b1101111010101111 3"
b10100 7
b10100 &"
b10100 '"
b10000 n
b0 :
b0 e
b0 ."
b1101 ,
b1101 g
b1101 0"
b1010 /
b101000000100010 9"
b110101111010100000010001000 ?
b110101111010100000010001000 @
b110101111010100000010001000 8"
b1101011110101000000100010 7"
b0 Y
b1010 G
b10 W
0s
1,"
b1111 *"
b1101 +"
b100000 X
b110100000100000 r
b1001 q
b101 S
b0x0xx '
b0x0xx i
b0x F
1b
0a
b1101111011101101 `
b10110 _
0}
b1000 &
b1000 4"
b1011 |
b1101111010101111 {
b1110011110110100000100000 B
b1110011110110100000100000 w
b10000 #
b10000 $"
b10000 R
b10000 u
b1000000000001101011110101000000100010 P
b10110000000010101010111101101000000000000000001101000001000000000000000000000000000000000100100000000000000000000000000000101 O
b0x0xx01x00000000000000000110111101110110100000000000000000000000000010110 N
b10010000000000000000000000000000000101100000000000000001101111010101111 Q
1!
#10
0!
#11
b0 A
b0 z
1<
b0 K
b0 V
b0 x
bx )
bx ~
bx 3"
1j
0f
b1101 M
b1101 U
b1101 Z
b0 I
b0 T
b0 t
b0 (
b0 k
b0 -"
02"
x}
b0x0xx &
b0x0xx 4"
b10110 |
bz {
b1101 '
b1101 i
b11 F
0b
b1001 `
b1110 _
b10 G
b0 S
b0 X
b0 q
b0 r
b0 *"
b0 +"
b0x0x0xx00000000000000000000000000010110zzzzzzzzzzzzzzzzzzzzzzzzzzzzzzzz Q
b110110100000000000000000000000000000100100000000000000000000000000001110 N
b101010000000000000000000000000000000000000000000000000000000000000000000000000000000000000000000000000000000000 O
1!
#12
0!
#13
b1010101 H
1-
b0 0
b0 [
b0 #"
0l
02
b0 *
b0 m
b1110 )
b1110 ~
b1110 3"
0j
b0 '
b0 i
b1 F
b0 `
b0 _
12"
1}
b1101 &
b1101 4"
b1110 |
b100000000000000000000000000000000000000000000000000000000000000000 N
b110110100000000000000000000000000001110zzzzzzzzzzzzzzzzzzzzzzzzzzzzzzzz Q
1!
#14
b1110 :
b1110 e
b1110 ."
0!
#15
b101 A
b101 z
0<
b101 K
b101 V
b101 x
b11010000010000000 C
b11010000010000000 o
b11010000010000000 5"
b0 )
b0 ~
b0 3"
1f
b1010 (
b1010 k
b1010 -"
b110 M
b110 U
b110 Z
b1001 I
b1001 T
b1001 t
b11010000010010100 >
b11010000010010100 p
b110100000100000 D
b110100000100000 6"
b110100000100000 :"
b11000 =
b11000 )"
02"
b0 &
b0 4"
b0 |
b1010 G
b1111 *"
b1010 +"
b100010 X
b101000000100010 r
b1001 q
b1110 S
b10100 n
b101 :
b101 e
b101 ."
b1110 ,
b1110 g
b1110 0"
b1101 /
b110100000100000 9"
b111001111011010000010000000 ?
b111001111011010000010000000 @
b111001111011010000010000000 8"
b1110011110110100000100000 7"
b11000 7
b11000 &"
b11000 '"
b10000000000000000000000000000000000000zzzzzzzzzzzzzzzzzzzzzzzzzzzzzzzz Q
b10101010111101010000000000000000001010000001000100000000000000000000000000000100100000000000000000000000000001110 O
b1010000000001110011110110100000100000 P
b1110011110101000000100010 B
b1110011110101000000100010 w
b10100 #
b10100 $"
b10100 R
b10100 u
1!
#16
0!
#17
b1110 A
b1110 z
b1110 K
b1110 V
b1110 x
b10100000010001000 C
b10100000010001000 o
b10100000010001000 5"
b11100 =
b11100 )"
b10100000010100000 >
b10100000010100000 p
b101000000100010 D
b101000000100010 6"
b101000000100010 :"
b1101 (
b1101 k
b1101 -"
b10 M
b10 U
b10 Z
1j
b11100 7
b11100 &"
b11100 '"
b11000 n
b1010 /
b101000000100010 9"
b111001111010100000010001000 ?
b111001111010100000010001000 @
b111001111010100000010001000 8"
b1110011110101000000100010 7"
b1101 +"
b100000 X
b110100000100000 r
b101 S
b1010 '
b1010 i
b11 F
b1001 `
b101 _
b0 B
b0 w
b11000 #
b11000 $"
b11000 R
b11000 u
b1100000000001110011110101000000100010 P
b101000000010101010111101101000000000000000001101000001000000000000000000000000000000000100100000000000000000000000000000101 O
b101010100000000000000000000000000000100100000000000000000000000000000101 N
1!
#18
0!
#19
b11111111111111111111111111111100 A
b11111111111111111111111111111100 z
b11111111111111111111111111111100 K
b11111111111111111111111111111100 V
b11111111111111111111111111111100 x
b0 C
b0 o
b0 5"
b101 )
b101 ~
b101 3"
b1010 (
b1010 k
b1010 -"
b110 M
b110 U
b110 Z
b11100 >
b11100 p
1%
b0 D
b0 6"
b0 :"
b100000 =
b100000 )"
12"
b1010 &
b1010 4"
b101 |
b1101 '
b1101 i
b1110 _
b1010 +"
b100010 X
b101000000100010 r
b11100 n
b0 :
b0 e
b0 ."
b0 ,
b0 g
b0 0"
b0 9
b0 d
b0 /"
b0 +
b0 h
b0 1"
b0 /
b0 9"
b0 ?
b0 @
b0 8"
b0 7"
b100000 7
b100000 &"
b100000 '"
b110101000000000000000000000000000000101zzzzzzzzzzzzzzzzzzzzzzzzzzzzzzzz Q
b110110100000000000000000000000000000100100000000000000000000000000001110 N
b1110000000010101010111101010000000000000000001010000001000100000000000000000000000000000100100000000000000000000000000000101 O
b1110000000000000000000000000000000000 P
b11100 #
b11100 $"
b11100 R
b11100 u
1!
#20
0!
#21
b0 A
b0 z
1<
b0 K
b0 V
b0 x
b100100 =
b100100 )"
b100000 >
b100000 p
b0 (
b0 k
b0 -"
b1101 M
b1101 U
b1101 Z
b0 I
b0 T
b0 t
b1110 )
b1110 ~
b1110 3"
b100100 7
b100100 &"
b100100 '"
b100000 n
b0 *"
b0 +"
b0 X
b0 r
b0 q
b0 S
b1010 '
b1010 i
b11111111111111111111111111111100 _
b1101 &
b1101 4"
b1110 |
b100000 #
b100000 $"
b100000 R
b100000 u
b10000000000000000000000000000000000000 P
b11111111111111111111111111111100000000010101010000000000000000000000000000000000000000000000000000000000000000000000000000000000000000000000000000000000 O
b101010100000000000000000000000000000100111111111111111111111111111111100 N
b110110100000000000000000000000000001110zzzzzzzzzzzzzzzzzzzzzzzzzzzzzzzz Q
1!
#22
0!
#23
b11111111111111111111111111111100 )
b11111111111111111111111111111100 ~
b11111111111111111111111111111100 3"
b100100 >
b100100 p
b101000 =
b101000 )"
b1010 &
b1010 4"
b11111111111111111111111111111100 |
b0 '
b0 i
b0 `
b0 _
b100100 n
b101000 7
b101000 &"
b101000 '"
b110101011111111111111111111111111111100zzzzzzzzzzzzzzzzzzzzzzzzzzzzzzzz Q
b10100000000000000000000000000000000000000000000000000000000000000000 N
b10101010000000000000000000000000000000000000000000000000000000000000000000000000000000000000000000000000000000000 O
b10010000000000000000000000000000000000 P
b100100 #
b100100 $"
b100100 R
b100100 u
1!
#24
0!
#25
b101100 =
b101100 )"
b101000 >
b101000 p
b0 )
b0 ~
b0 3"
b101100 7
b101100 &"
b101100 '"
b101000 n
b0 &
b0 4"
b0 |
b101000 #
b101000 $"
b101000 R
b101000 u
b10100000000000000000000000000000000000 P
b110000000000000000000000000000000000000zzzzzzzzzzzzzzzzzzzzzzzzzzzzzzzz Q
1!
#26
0!
#27
b101100 >
b101100 p
b110000 =
b110000 )"
b101100 n
b110000 7
b110000 &"
b110000 '"
b10110000000000000000000000000000000000 P
b101100 #
b101100 $"
b101100 R
b101100 u
1!
#28
0!
#29
b110100 =
b110100 )"
b110000 >
b110000 p
b110100 7
b110100 &"
b110100 '"
b110000 n
b110000 #
b110000 $"
b110000 R
b110000 u
b11000000000000000000000000000000000000 P
1!
#30
0!
#31
b110100 >
b110100 p
b111000 =
b111000 )"
b110100 n
b111000 7
b111000 &"
b111000 '"
b11010000000000000000000000000000000000 P
b110100 #
b110100 $"
b110100 R
b110100 u
1!
#32
0!
#33
b111100 =
b111100 )"
b111000 >
b111000 p
b111100 7
b111100 &"
b111100 '"
b111000 n
b111000 #
b111000 $"
b111000 R
b111000 u
b11100000000000000000000000000000000000 P
1!
#34
0!
#35
b111100 >
b111100 p
b1000000 =
b1000000 )"
b111100 n
b1000000 7
b1000000 &"
b1000000 '"
b11110000000000000000000000000000000000 P
b111100 #
b111100 $"
b111100 R
b111100 u
1!
#36
0!
#37
b1000100 =
b1000100 )"
b1000000 >
b1000000 p
b1000100 7
b1000100 &"
b1000100 '"
b1000000 n
bx B
bx w
b1000000 #
b1000000 $"
b1000000 R
b1000000 u
b100000000000000000000000000000000000000 P
1!
#38
0!
#39
bx A
bx z
x$
x]
bx L
bx \
x^
x6
x;
x4
x5
x-
x3
xJ
bx H
x.
bx00 C
bx00 o
bx00 5"
bx >
bx p
x%
bx 0
bx [
bx #"
bx D
bx 6"
bx :"
bx =
bx )"
b1000100 n
bx :
bx e
bx ."
bx ,
bx g
bx 0"
bx 9
bx d
bx /"
bx +
bx h
bx 1"
bx /
bx 1
bx !"
bx 9"
b0xxxxxxxxxxxxxxxxxxxxxxxxxx00 ?
bx00 @
bx00 8"
bx 7"
b1001000 7
b1001000 &"
b1001000 '"
b1000100xxxxxxxxxxxxxxxxxxxxxxxxxxxxxxxx P
b1000100 #
b1000100 $"
b1000100 R
b1000100 u
1!
#40
0!
#41
x<
bx K
bx V
bx x
xf
bx (
bx k
bx -"
bx I
bx T
bx t
bx 7
bx &"
bx '"
b1001000 n
bx Y
bx G
bx W
xs
x,"
bx *"
bx +"
bx X
bx r
bx q
bx S
bx #
bx $"
bx R
bx u
b1001000xxxxxxxxxxxxxxxxxxxxxxxxxxxxxxxx P
bx O
1!
#42
0!
#43
xj
bx E
bx c
bx '
bx i
bx F
xb
xa
bx `
bx _
bx00 ?
bx n
bx N
bx P
1!
#44
0!
#45
bx )
bx ~
bx 3"
x2"
x}
bx &
bx 4"
bx |
bx {
bx Q
1!
#46
0!
#47
1!
#48
0!
#49
1!
0"
