Test.vcd
$date
	Sun Jun  7 11:46:11 2020
$end
$version
	Icarus Verilog
$end
$timescale
	1s
$end
$scope module PipelinedMIPS_tb $end
$var reg 1 ! Clk $end
$var reg 1 " Rst $end
$scope module P5SMIPS $end
$var wire 1 ! Clk $end
$var wire 32 # PCout [31:0] $end
$var wire 1 $ PCsrc $end
$var wire 1 " Rst $end
$var wire 1 % branch_zero $end
$var wire 1 & memHAZ $end
$var wire 1 ' zero_eqdet $end
$var wire 5 ( writeReg3 [4:0] $end
$var wire 5 ) writeReg2 [4:0] $end
$var wire 5 * writeReg [4:0] $end
$var wire 32 + writeData [31:0] $end
$var wire 4 , stall [3:0] $end
$var wire 5 - rtSel [4:0] $end
$var wire 5 . rsSel [4:0] $end
$var wire 1 / regWrite $end
$var wire 1 0 regDst $end
$var wire 5 1 rdSel [4:0] $end
$var wire 6 2 opCode_nop [5:0] $end
$var wire 6 3 opCode [5:0] $end
$var wire 1 4 nop $end
$var wire 1 5 memtoreg $end
$var wire 1 6 memWrite $end
$var wire 1 7 memRead $end
$var wire 1 8 jump $end
$var wire 32 9 inc4_PC [31:0] $end
$var wire 2 : hazType [1:0] $end
$var wire 1 ; flush $end
$var wire 32 < data2 [31:0] $end
$var wire 32 = data1 [31:0] $end
$var wire 1 > branch $end
$var wire 1 ? Zero $end
$var wire 32 @ PCin [31:0] $end
$var wire 32 A Offset_add [31:0] $end
$var wire 32 B JuOffset32 [31:0] $end
$var wire 28 C JuOffset28 [27:0] $end
$var wire 32 D JA_BA [31:0] $end
$var wire 32 E Instruction [31:0] $end
$var wire 32 F ImOffset [31:0] $end
$var wire 32 G Extdata [31:0] $end
$var wire 32 H DO [31:0] $end
$var wire 2 I ControlWire3 [1:0] $end
$var wire 4 J ControlWire2 [3:0] $end
$var wire 8 K ControlWire1 [7:0] $end
$var wire 32 L B [31:0] $end
$var wire 1 M ALUsrc $end
$var wire 32 N ALUresult [31:0] $end
$var wire 2 O ALUOp [1:0] $end
$var wire 4 P ALUCnt [3:0] $end
$var reg 73 Q EX_MEM_pipereg [72:0] $end
$var reg 120 R ID_EX_pipereg [119:0] $end
$var reg 64 S IF_ID_pipereg [63:0] $end
$var reg 71 T MEM_WB_pipereg [70:0] $end
$var reg 32 U PC_reg [31:0] $end
$scope module ALU0 $end
$var wire 32 V A [31:0] $end
$var wire 1 ? Zero $end
$var wire 32 W B [31:0] $end
$var wire 4 X AluOp [3:0] $end
$var reg 32 Y ALUresult [31:0] $end
$upscope $end
$scope module ALU1 $end
$var wire 2 Z AluOp [1:0] $end
$var wire 6 [ Funct [5:0] $end
$var wire 6 \ Imm [5:0] $end
$var reg 4 ] ALUCnt [3:0] $end
$upscope $end
$scope module CUnit $end
$var wire 6 ^ Instruction [5:0] $end
$var wire 2 _ ALUOp [1:0] $end
$var reg 1 ` ALUOp0 $end
$var reg 1 a ALUOp1 $end
$var reg 1 M ALUsrc $end
$var reg 1 > Branch $end
$var reg 1 8 Jump $end
$var reg 1 7 MemRead $end
$var reg 1 6 MemWrite $end
$var reg 1 5 MemtoReg $end
$var reg 1 0 RegDst $end
$var reg 1 / RegWrite $end
$upscope $end
$scope module DataMemory $end
$var wire 32 b Address [31:0] $end
$var wire 1 ! Clk $end
$var wire 1 & MemError $end
$var wire 1 " Rst $end
$var wire 32 c WriteData [31:0] $end
$var wire 1 d memRead $end
$var wire 1 e memWrite $end
$var wire 32 f ReadData [31:0] $end
$upscope $end
$scope module HazUnit $end
$var wire 1 g EX_MEM_regWen $end
$var wire 5 h ID_EX_Rs [4:0] $end
$var wire 5 i ID_EX_Rt [4:0] $end
$var wire 1 j ID_EX_memRead $end
$var wire 5 k MEM_WB_Rd [4:0] $end
$var wire 1 l MEM_WB_regWen $end
$var wire 1 % branch $end
$var wire 1 8 jump $end
$var wire 2 m hazType [1:0] $end
$var wire 5 n EX_MEM_Rd [4:0] $end
$var reg 1 o flush $end
$var reg 1 p hazFlag $end
$var reg 1 q stall $end
$upscope $end
$scope module ImmAddressAdder $end
$var wire 32 r A [31:0] $end
$var wire 32 s B [31:0] $end
$var reg 32 t Result [31:0] $end
$upscope $end
$scope module InputSelectALU $end
$var wire 32 u I0 [31:0] $end
$var wire 32 v I1 [31:0] $end
$var wire 1 w Sel $end
$var wire 32 x Out [31:0] $end
$upscope $end
$scope module InstructionMemory $end
$var wire 32 y Address [31:0] $end
$var wire 1 ! Clk $end
$var wire 1 z Rst $end
$var wire 32 { Data [31:0] $end
$upscope $end
$scope module JumpAddressSel $end
$var wire 32 | I0 [31:0] $end
$var wire 32 } I1 [31:0] $end
$var wire 1 > Sel $end
$var wire 32 ~ Out [31:0] $end
$upscope $end
$scope module MemorySelMux $end
$var wire 32 !" I0 [31:0] $end
$var wire 32 "" I1 [31:0] $end
$var wire 1 #" Sel $end
$var wire 32 $" Out [31:0] $end
$upscope $end
$scope module NOPinsert $end
$var wire 6 %" I0 [5:0] $end
$var wire 6 &" I1 [5:0] $end
$var wire 1 4 Sel $end
$var wire 6 '" Out [5:0] $end
$upscope $end
$scope module PCAddressIncrement $end
$var wire 32 (" A [31:0] $end
$var wire 32 )" B [31:0] $end
$var reg 32 *" Result [31:0] $end
$upscope $end
$scope module PCSelect $end
$var wire 32 +" I0 [31:0] $end
$var wire 32 ," I1 [31:0] $end
$var wire 1 $ Sel $end
$var wire 32 -" Out [31:0] $end
$upscope $end
$scope module RdRtSelRF $end
$var wire 5 ." I0 [4:0] $end
$var wire 5 /" I1 [4:0] $end
$var wire 1 0" Sel $end
$var wire 5 1" Out [4:0] $end
$upscope $end
$scope module Registers $end
$var wire 1 ! Clk $end
$var wire 1 " Rst $end
$var wire 32 2" data1 [31:0] $end
$var wire 32 3" data2 [31:0] $end
$var wire 5 4" read1 [4:0] $end
$var wire 5 5" read2 [4:0] $end
$var wire 1 6" regWen $end
$var wire 32 7" writeData [31:0] $end
$var wire 5 8" writeReg [4:0] $end
$upscope $end
$scope module Shiftby2 $end
$var wire 32 9" Out [31:0] $end
$var wire 32 :" In [31:0] $end
$upscope $end
$scope module Shiftby2Jump $end
$var wire 26 ;" In [25:0] $end
$var wire 28 <" Out [27:0] $end
$upscope $end
$scope module SignExtend $end
$var wire 16 =" In [15:0] $end
$var wire 32 >" Out [31:0] $end
$upscope $end
$scope module pipRegCntrl $end
$var wire 1 ! Clk $end
$var wire 2 ?" hazType [1:0] $end
$var reg 2 @" State [1:0] $end
$var reg 1 ; flush $end
$var reg 1 4 nop $end
$var reg 4 A" stall [3:0] $end
$upscope $end
$upscope $end
$upscope $end
$enddefinitions $end
#0
$dumpvars
bx A"
bx @"
bx ?"
bx >"
bx ="
bx00 <"
bx ;"
bx :"
bx00 9"
bx 8"
bx 7"
x6"
bx 5"
bx 4"
bx 3"
bx 2"
bx 1"
x0"
bx /"
bx ."
bx -"
bx ,"
bx +"
bx *"
b100 )"
bx ("
bx '"
b111111 &"
bx %"
bx $"
x#"
bx ""
bx !"
bx ~
bx }
bx00 |
bx {
zz
bx y
bx x
xw
bx v
bx u
bx t
bx00 s
bx r
xq
xp
xo
bx n
bx m
xl
bx k
xj
bx i
bx h
xg
bx f
xe
xd
bx c
bx b
xa
x`
bx _
bx ^
bx ]
bx \
bx [
bx Z
bx Y
bx X
bx W
bx V
bx U
bx T
bx S
bx R
bx Q
bx P
bx O
bx N
xM
bx L
bx K
bx J
bx I
bx H
bx G
bx00 F
bx E
bx D
bx00 C
bx00 B
bx A
bx @
x?
x>
bx =
bx <
x;
bx :
bx 9
x8
x7
x6
x5
x4
bx 3
bx 2
bx 1
x0
x/
bx .
bx -
bx ,
bx +
bx *
bx )
bx (
x'
z&
x%
x$
bx #
0"
1!
$end
#1
0$
0%
0`
b10 O
b10 _
1a
08
0>
06
07
0/
05
0M
b10001 K
10
1?
b0 N
b0 Y
0q
0p
b0 :
b0 m
b0 ?"
0o
b100 @
b100 -"
b0 D
b0 ~
b0 ,"
b0 A
b0 t
b0 }
1'
b0 F
b0 s
b0 9"
b0 +
b0 $"
b0 7"
0l
bz H
bz f
0g
0j
b10 P
b10 X
b10 ]
b0 L
b0 W
b0 x
b0 *
b0 n
b0 1"
b111111 2
b111111 ^
b111111 '"
b0 G
b0 :"
b0 >"
b0 (
b0 8"
06"
b0 !"
b0 ""
0#"
b0 I
b0 )
b0 k
b0 b
b0 c
0e
0d
b0 J
b0 V
b0 Z
b0 [
b0 \
b0 u
b0 v
0w
b0 ."
b0 /"
00"
b0 =
b0 2"
b0 .
b0 h
b0 4"
b0 <
b0 3"
b0 -
b0 i
b0 5"
b0 1
b111111 3
b111111 %"
b0 ="
b0 B
b0 |
b0 C
b0 <"
b0 ;"
b0 r
b0 T
b0 Q
b0 R
b11111100000000000000000000000000 S
b100 9
b100 *"
b100 +"
b10001100111001000000000000001010 E
b10001100111001000000000000001010 {
b0 #
b0 ("
b0 U
b0 y
1"
#2
b0 ,
b0 A"
0;
04
b0 @"
0!
#3
b0 O
b0 _
0a
17
1/
1M
b11000010 K
00
0'
b101000 F
b101000 s
b101000 9"
bz +
bz $"
bz 7"
b1101 P
b1101 X
b1101 ]
b101100 A
b101100 t
b101100 }
b100011 2
b100011 ^
b100011 '"
b1010 G
b1010 :"
b1010 >"
b11100100000000000000101000 D
b11100100000000000000101000 ~
b11100100000000000000101000 ,"
b1000 @
b1000 -"
bz !"
b111111 \
b10 Z
10"
b100 r
b10 =
b10 2"
b111 .
b111 h
b111 4"
b1101111010101111 <
b1101111010101111 3"
b100 -
b100 i
b100 5"
b100011 3
b100011 %"
b1010 ="
b11100100000000000000101000 B
b11100100000000000000101000 |
b11100100000000000000101000 C
b11100100000000000000101000 <"
b111001000000000000001010 ;"
b1000 9
b1000 *"
b1000 +"
b0zzzzzzzzzzzzzzzzzzzzzzzzzzzzzzzz T
b111111000100010000000000000000000000000000000000000000000000000000000000000000000000000000000000000000000000000000000000 R
b10010001100111001000000000000001010 S
b100010000101000000100010 E
b100010000101000000100010 {
b100 #
b100 ("
b100 U
b100 y
1!
#4
0!
#5
1p
b1 :
b1 m
b1 ?"
1q
b10 O
b10 _
1a
07
15
0M
b1010101 K
10
0?
b1100 N
b1100 Y
b10100000010001000 F
b10100000010001000 s
b10100000010001000 9"
b100 *
b100 n
b100 1"
b1100 @
b1100 -"
b10100000010010000 A
b10100000010010000 t
b10100000010010000 }
b0 2
b0 ^
b0 '"
b101000000100010 G
b101000000100010 :"
b101000000100010 >"
b10001000010100000010001000 D
b10001000010100000010001000 ~
b10001000010100000010001000 ,"
1g
1j
b10 P
b10 X
b10 ]
b1010 L
b1010 W
b1010 x
b1100 9
b1100 *"
b1100 +"
b1000 r
b1101111010101111 =
b1101111010101111 2"
b100 .
b100 h
b100 4"
b111110 <
b111110 3"
b1000 -
b1000 i
b1000 5"
b1010 1
b0 3
b0 %"
b101000000100010 ="
b10001000010100000010001000 B
b10001000010100000010001000 |
b10001000010100000010001000 C
b10001000010100000010001000 <"
b100010000101000000100010 ;"
b100011 \
b1001 J
b0 Z
1w
00"
b100 ."
b1010 [
b1010 v
b1101111010101111 u
b10 V
b10000001000100000000000000011 E
b10000001000100000000000000011 {
b1000 #
b1000 ("
b1000 U
b1000 y
b100000000000100010000101000000100010 S
b100011110000100010000000000000000000000000000000000010100000000000000000110111101010111100000000000000000000000000000010 R
1!
#6
0/
b10001 K
05
b111111 2
b111111 ^
b111111 '"
b11 ,
b11 A"
14
b1 @"
0!
#7
1p
b1101111001110001 N
b1101111001110001 Y
1l
b1101111011101101 H
b1101111011101101 f
0g
0j
b1010 *
b1010 n
b1010 1"
b110 P
b110 X
b110 ]
b111110 L
b111110 W
b111110 x
b100 )
b100 k
b10 I
1d
b1101111010101111 c
b1100 b
b111111 \
b0 J
b10 Z
0w
10"
b1000 ."
b1010 /"
b100010 [
b101000000100010 v
b111110 u
b1101111010101111 V
b10010010000000000000000110111101010111100000000000000000000000000001100 Q
b111111000100010100001010000000000000000001010000001000100000000000000000000000000011111000000000000000001101111010101111 R
1!
#8
0!
#9
b0 :
b0 m
b0 ?"
0q
0p
0l
bz H
bz f
b1101111011101101 +
b1101111011101101 $"
b1101111011101101 7"
b1010 )
b1010 k
b0 I
0d
b111110 c
b1101111001110001 b
16"
b100 (
b100 8"
b1100 ""
b1101111011101101 !"
b101000000000000000000000000000000011111000000000000000001101111001110001 Q
b10001000000000000000000000000000000110000000000000000001101111011101101 T
1!
#10
1/
b1010101 K
15
b0 2
b0 ^
b0 '"
b0 ,
b0 A"
04
b0 @"
b1101111011101101 =
b1101111011101101 2"
0!
#11
1p
b10 :
b10 m
b10 ?"
1o
1$
1%
1`
b1 O
b1 _
0a
1>
0/
x5
b1x0x K
x0
b1101111010101111 N
b1101111010101111 Y
1'
b1100 F
b1100 s
b1100 9"
bz +
bz $"
bz 7"
1g
b11000 A
b11000 t
b11000 }
b100 2
b100 ^
b100 '"
b11 G
b11 :"
b11 >"
b11000 D
b11000 ~
b11000 ,"
b11000 @
b11000 -"
06"
b1010 (
b1010 8"
b1101111001110001 ""
bz !"
b0 \
b1010 J
b1101111011101101 V
b1100 r
b1010 =
b1010 2"
b1 .
b1 h
b1 4"
b1010 <
b1010 3"
b10 -
b10 i
b10 5"
b0 1
b100 3
b100 %"
b11 ="
b100010000000000000001100 B
b100010000000000000001100 |
b100010000000000000001100 C
b100010000000000000001100 <"
b1000100000000000000011 ;"
b10000 9
b10000 *"
b10000 +"
b101000000000000000001101111001110001zzzzzzzzzzzzzzzzzzzzzzzzzzzzzzzz T
b10101010100001010000000000000000001010000001000100000000000000000000000000011111000000000000000001101111011101101 R
b110000010000001000100000000000000011 S
b1010001010110000000100100 E
b1010001010110000000100100 {
b1100 #
b1100 ("
b1100 U
b1100 y
1!
#12
1;
b10 @"
0!
#13
0p
b0 :
b0 m
b0 ?"
0o
0$
0%
0`
b10 O
b10 _
1a
0>
05
b10001 K
10
1?
b0 N
b0 Y
b11100 @
b11100 -"
b0 D
b0 ~
b0 ,"
b0 F
b0 s
b0 9"
b0 A
b0 t
b0 }
b111111 2
b111111 ^
b111111 '"
b0 G
b0 :"
b0 >"
0g
b0x0 *
b0x0 n
b0x0 1"
b1010 L
b1010 W
b1010 x
1l
b11100 9
b11100 *"
b11100 +"
b0 r
b0 =
b0 2"
b0 .
b0 h
b0 4"
b0 <
b0 3"
b0 -
b0 i
b0 5"
b111111 3
b111111 %"
b0 ="
b0 B
b0 |
b0 C
b0 <"
b0 ;"
b100 \
b0x0 J
b1 Z
x0"
b10 ."
b0 /"
b11 [
b11 v
b1010 u
b1010 V
b11 I
b1101111010101111 b
b10001100110001000000000000001010 E
b10001100110001000000000000001010 {
b11000 #
b11000 ("
b11000 U
b11000 y
b11111100000000000000000000000000 S
b10000001x0x0001000000000000000000000000000000000000110000000000000000000000000000101000000000000000000000000000001010 R
b101010100000000000000000000000000011111000000000000000001101111010101111 Q
1!
#14
0;
b0 @"
0!
#15
b0 O
b0 _
0a
17
1/
1M
b11000010 K
00
1?
b0 N
b0 Y
b1101111010101111 +
b1101111010101111 $"
b1101111010101111 7"
0'
b101000 F
b101000 s
b101000 9"
0l
b0 *
b0 n
b0 1"
b1101 P
b1101 X
b1101 ]
b0 L
b0 W
b0 x
b1000100 A
b1000100 t
b1000100 }
b100011 2
b100011 ^
b100011 '"
b1010 G
b1010 :"
b1010 >"
b11000100000000000000101000 D
b11000100000000000000101000 ~
b11000100000000000000101000 ,"
b100000 @
b100000 -"
16"
1#"
b1101111010101111 ""
b0x0 )
b0x0 k
b0x I
b1010 c
b0 b
b111111 \
b0 J
b10 Z
10"
b0 ."
b0 [
b0 v
b0 u
b0 V
b11100 r
b110 =
b110 2"
b110 .
b110 h
b110 4"
b1101111011101101 <
b1101111011101101 3"
b100 -
b100 i
b100 5"
b100011 3
b100011 %"
b1010 ="
b11000100000000000000101000 B
b11000100000000000000101000 |
b11000100000000000000101000 C
b11000100000000000000101000 <"
b110001000000000000001010 ;"
b100000 9
b100000 *"
b100000 +"
b110101000000000000000001101111010101111zzzzzzzzzzzzzzzzzzzzzzzzzzzzzzzz T
b0x000x00000000000000000000000000000101000000000000000000000000000000000 Q
b111111000100010000000000000000000000000000000000000000000000000000000000000000000000000000000000000000000000000000000000 R
b1110010001100110001000000000000001010 S
b1000000000000000000000000000 E
b1000000000000000000000000000 {
b11100 #
b11100 ("
b11100 U
b11100 y
1!
#16
0!
#17
1p
b10 :
b10 m
b10 ?"
1o
1$
x`
bx O
bx _
xa
18
07
0/
x5
xM
bx00xxx0x K
x0
0?
b10000 N
b10000 Y
1'
b0 F
b0 s
b0 9"
b100 *
b100 n
b100 1"
b0 @
b0 -"
b100000 A
b100000 t
b100000 }
b10 2
b10 ^
b10 '"
b0 G
b0 :"
b0 >"
b0 D
b0 ~
b0 ,"
1g
1j
b10 P
b10 X
b10 ]
b1010 L
b1010 W
b1010 x
bx +
bx $"
bx 7"
b100100 9
b100100 *"
b100100 +"
b100000 r
b0 =
b0 2"
b0 .
b0 h
b0 4"
b0 <
b0 3"
b0 -
b0 i
b0 5"
b10 3
b10 %"
b0 ="
b0 B
b0 |
b0 C
b0 <"
b0 ;"
b100011 \
b1001 J
b0 Z
1w
00"
b100 ."
b1010 [
b1010 v
b1101111011101101 u
b110 V
b0 )
b0 k
b0 I
b0 c
06"
x#"
b0x0 (
b0x0 8"
b0 ""
b10101100011001000000000000001010 E
b10101100011001000000000000001010 {
b100000 #
b100000 ("
b100000 U
b100000 y
b10000000001000000000000000000000000000 S
b100011110000100010000000000000000000000000000000000010100000000000000000110111101110110100000000000000000000000000000110 R
b0 Q
b0x000x000000000000000000000000000000000zzzzzzzzzzzzzzzzzzzzzzzzzzzzzzzz T
1!
#18
1;
b10 @"
0!
#19
0p
b0 :
b0 m
b0 ?"
0o
b100 @
b100 -"
0$
1?
0`
b10 O
b10 _
1a
08
05
0M
b10001 K
10
b0 N
b0 Y
bz +
bz $"
bz 7"
1l
b1111111011101101 H
b1111111011101101 f
0g
0j
b0 *
b0 n
b0 1"
b0 L
b0 W
b0 x
b0 A
b0 t
b0 }
b111111 2
b111111 ^
b111111 '"
0#"
b0 (
b0 8"
b100 )
b100 k
b10 I
1d
b1101111011101101 c
b10000 b
b10 \
b0x0 J
bx Z
xw
x0"
b0 ."
b0 [
b0 v
b0 u
b0 V
b0 r
b111111 3
b111111 %"
b100 9
b100 *"
b100 +"
b0zzzzzzzzzzzzzzzzzzzzzzzzzzzzzzzz T
b10010010000000000000000110111101110110100000000000000000000000000010000 Q
b10x00xxx0x0000000000000000000000000000000000000000000000000000000000000000000000000000000000000000000000000000000000 R
b11111100000000000000000000000000 S
b10001100111001000000000000001010 E
b10001100111001000000000000001010 {
b0 #
b0 ("
b0 U
b0 y
1!
#20
0;
b0 @"
0!
#21
b0 O
b0 _
0a
17
1/
1M
b11000010 K
00
0'
b101000 F
b101000 s
b101000 9"
b1000 @
b1000 -"
b101100 A
b101100 t
b101100 }
b100011 2
b100011 ^
b100011 '"
b1010 G
b1010 :"
b1010 >"
b11100100000000000000101000 D
b11100100000000000000101000 ~
b11100100000000000000101000 ,"
b1101 P
b1101 X
b1101 ]
0l
bz H
bz f
b1111111011101101 +
b1111111011101101 $"
b1111111011101101 7"
b1000 9
b1000 *"
b1000 +"
b100 r
b10 =
b10 2"
b111 .
b111 h
b111 4"
b1101111011101101 <
b1101111011101101 3"
b100 -
b100 i
b100 5"
b100011 3
b100011 %"
b1010 ="
b11100100000000000000101000 B
b11100100000000000000101000 |
b11100100000000000000101000 C
b11100100000000000000101000 <"
b111001000000000000001010 ;"
b111111 \
b0 J
b10 Z
0w
10"
b0 )
b0 k
b0x I
0d
b0 c
b0 b
16"
b100 (
b100 8"
b10000 ""
b1111111011101101 !"
b100010000101000000100010 E
b100010000101000000100010 {
b100 #
b100 ("
b100 U
b100 y
b10010001100111001000000000000001010 S
b111111000100010000000000000000000000000000000000000000000000000000000000000000000000000000000000000000000000000000000000 R
b0x00000000000000000000000000000000000000000000000000000000000000000 Q
b10001000000000000000000000000000001000000000000000000001111111011101101 T
1!
#22
b1111111011101101 <
b1111111011101101 3"
0!
#23
1p
b1 :
b1 m
b1 ?"
1q
b10 O
b10 _
1a
07
15
0M
b1010101 K
10
0?
b1100 N
b1100 Y
b100 *
b100 n
b100 1"
b10100000010001000 F
b10100000010001000 s
b10100000010001000 9"
bx +
bx $"
bx 7"
1g
1j
b10 P
b10 X
b10 ]
b1010 L
b1010 W
b1010 x
b10100000010010000 A
b10100000010010000 t
b10100000010010000 }
b0 2
b0 ^
b0 '"
b101000000100010 G
b101000000100010 :"
b101000000100010 >"
b10001000010100000010001000 D
b10001000010100000010001000 ~
b10001000010100000010001000 ,"
b1100 @
b1100 -"
06"
x#"
b0 (
b0 8"
b0 ""
bz !"
b0 I
b100011 \
b1001 J
b0 Z
1w
00"
b100 ."
b1010 [
b1010 v
b1111111011101101 u
b10 V
b1000 r
b1111111011101101 =
b1111111011101101 2"
b100 .
b100 h
b100 4"
b111110 <
b111110 3"
b1000 -
b1000 i
b1000 5"
b1010 1
b0 3
b0 %"
b101000000100010 ="
b10001000010100000010001000 B
b10001000010100000010001000 |
b10001000010100000010001000 C
b10001000010100000010001000 <"
b100010000101000000100010 ;"
b1100 9
b1100 *"
b1100 +"
b0x0000000000000000000000000000000000000zzzzzzzzzzzzzzzzzzzzzzzzzzzzzzzz T
b0 Q
b100011110000100010000000000000000000000000000000000010100000000000000000111111101110110100000000000000000000000000000010 R
b100000000000100010000101000000100010 S
b10000001000100000000000000011 E
b10000001000100000000000000011 {
b1000 #
b1000 ("
b1000 U
b1000 y
1!
#24
0/
b10001 K
05
b111111 2
b111111 ^
b111111 '"
b11 ,
b11 A"
14
b1 @"
0!
#25
b1111111010101111 N
b1111111010101111 Y
1p
bz +
bz $"
bz 7"
0g
0j
b1010 *
b1010 n
b1010 1"
b110 P
b110 X
b110 ]
b111110 L
b111110 W
b111110 x
1l
b1101111011101101 H
b1101111011101101 f
b111111 \
b0 J
b10 Z
0w
10"
b1000 ."
b1010 /"
b100010 [
b101000000100010 v
b111110 u
b1111111011101101 V
b100 )
b100 k
b10 I
1d
b1111111011101101 c
b1100 b
0#"
b111111000100010100001010000000000000000001010000001000100000000000000000000000000011111000000000000000001111111011101101 R
b10010010000000000000000111111101110110100000000000000000000000000001100 Q
b0zzzzzzzzzzzzzzzzzzzzzzzzzzzzzzzz T
1!
#26
0!
#27
b0 :
b0 m
b0 ?"
0q
0p
b1101111011101101 +
b1101111011101101 $"
b1101111011101101 7"
0l
bz H
bz f
16"
b100 (
b100 8"
b1100 ""
b1101111011101101 !"
b1010 )
b1010 k
b0 I
0d
b111110 c
b1111111010101111 b
b10001000000000000000000000000000000110000000000000000001101111011101101 T
b101000000000000000000000000000000011111000000000000000001111111010101111 Q
1!
#28
1/
b1010101 K
15
b0 2
b0 ^
b0 '"
b0 ,
b0 A"
04
b1101111011101101 =
b1101111011101101 2"
b0 @"
0!
#29
1p
b10 :
b10 m
b10 ?"
1o
1$
1%
1`
b1 O
b1 _
0a
1>
0/
x5
b1x0x K
x0
b1101111010101111 N
b1101111010101111 Y
1'
b1100 F
b1100 s
b1100 9"
b11000 @
b11000 -"
b11000 A
b11000 t
b11000 }
b100 2
b100 ^
b100 '"
b11 G
b11 :"
b11 >"
b11000 D
b11000 ~
b11000 ,"
1g
bz +
bz $"
bz 7"
b10000 9
b10000 *"
b10000 +"
b1100 r
b1010 =
b1010 2"
b1 .
b1 h
b1 4"
b1010 <
b1010 3"
b10 -
b10 i
b10 5"
b0 1
b100 3
b100 %"
b11 ="
b100010000000000000001100 B
b100010000000000000001100 |
b100010000000000000001100 C
b100010000000000000001100 <"
b1000100000000000000011 ;"
b0 \
b1010 J
b1101111011101101 V
06"
b1010 (
b1010 8"
b1111111010101111 ""
bz !"
b1010001010110000000100100 E
b1010001010110000000100100 {
b1100 #
b1100 ("
b1100 U
b1100 y
b110000010000001000100000000000000011 S
b10101010100001010000000000000000001010000001000100000000000000000000000000011111000000000000000001101111011101101 R
b101000000000000000001111111010101111zzzzzzzzzzzzzzzzzzzzzzzzzzzzzzzz T
1!
#30
1;
b10 @"
0!
#31
0p
b0 :
b0 m
b0 ?"
0o
0$
0%
1?
0`
b10 O
b10 _
1a
0>
05
b10001 K
10
b0 N
b0 Y
b11100 @
b11100 -"
b0 D
b0 ~
b0 ,"
b0 F
b0 s
b0 9"
1l
0g
b0x0 *
b0x0 n
b0x0 1"
b1010 L
b1010 W
b1010 x
b0 A
b0 t
b0 }
b111111 2
b111111 ^
b111111 '"
b0 G
b0 :"
b0 >"
b11 I
b1101111010101111 b
b100 \
b0x0 J
b1 Z
x0"
b10 ."
b0 /"
b11 [
b11 v
b1010 u
b1010 V
b0 r
b0 =
b0 2"
b0 .
b0 h
b0 4"
b0 <
b0 3"
b0 -
b0 i
b0 5"
b111111 3
b111111 %"
b0 ="
b0 B
b0 |
b0 C
b0 <"
b0 ;"
b11100 9
b11100 *"
b11100 +"
b101010100000000000000000000000000011111000000000000000001101111010101111 Q
b10000001x0x0001000000000000000000000000000000000000110000000000000000000000000000101000000000000000000000000000001010 R
b11111100000000000000000000000000 S
b10001100110001000000000000001010 E
b10001100110001000000000000001010 {
b11000 #
b11000 ("
b11000 U
b11000 y
1!
#32
0;
b0 @"
0!
#33
b0 O
b0 _
0a
17
1/
1M
b11000010 K
00
1?
b0 N
b0 Y
0'
b101000 F
b101000 s
b101000 9"
b1101111010101111 +
b1101111010101111 $"
b1101111010101111 7"
b100000 @
b100000 -"
b1000100 A
b1000100 t
b1000100 }
b100011 2
b100011 ^
b100011 '"
b1010 G
b1010 :"
b1010 >"
b11000100000000000000101000 D
b11000100000000000000101000 ~
b11000100000000000000101000 ,"
b0 *
b0 n
b0 1"
b1101 P
b1101 X
b1101 ]
b0 L
b0 W
b0 x
0l
b100000 9
b100000 *"
b100000 +"
b11100 r
b110 =
b110 2"
b110 .
b110 h
b110 4"
b1101111011101101 <
b1101111011101101 3"
b100 -
b100 i
b100 5"
b100011 3
b100011 %"
b1010 ="
b11000100000000000000101000 B
b11000100000000000000101000 |
b11000100000000000000101000 C
b11000100000000000000101000 <"
b110001000000000000001010 ;"
b111111 \
b0 J
b10 Z
10"
b0 ."
b0 [
b0 v
b0 u
b0 V
b0x0 )
b0x0 k
b0x I
b1010 c
b0 b
16"
1#"
b1101111010101111 ""
b1000000000000000000000000000 E
b1000000000000000000000000000 {
b11100 #
b11100 ("
b11100 U
b11100 y
b1110010001100110001000000000000001010 S
b111111000100010000000000000000000000000000000000000000000000000000000000000000000000000000000000000000000000000000000000 R
b0x000x00000000000000000000000000000101000000000000000000000000000000000 Q
b110101000000000000000001101111010101111zzzzzzzzzzzzzzzzzzzzzzzzzzzzzzzz T
1!
#34
0!
#35
1p
b10 :
b10 m
b10 ?"
1o
1$
x`
bx O
bx _
xa
18
07
0/
x5
xM
bx00xxx0x K
x0
0?
b10000 N
b10000 Y
b100 *
b100 n
b100 1"
1'
b0 F
b0 s
b0 9"
bx +
bx $"
bx 7"
1g
1j
b10 P
b10 X
b10 ]
b1010 L
b1010 W
b1010 x
b100000 A
b100000 t
b100000 }
b10 2
b10 ^
b10 '"
b0 G
b0 :"
b0 >"
b0 D
b0 ~
b0 ,"
b0 @
b0 -"
06"
x#"
b0x0 (
b0x0 8"
b0 ""
b0 )
b0 k
b0 I
b0 c
b100011 \
b1001 J
b0 Z
1w
00"
b100 ."
b1010 [
b1010 v
b1101111011101101 u
b110 V
b100000 r
b0 =
b0 2"
b0 .
b0 h
b0 4"
b0 <
b0 3"
b0 -
b0 i
b0 5"
b10 3
b10 %"
b0 ="
b0 B
b0 |
b0 C
b0 <"
b0 ;"
b100100 9
b100100 *"
b100100 +"
b0x000x000000000000000000000000000000000zzzzzzzzzzzzzzzzzzzzzzzzzzzzzzzz T
b0 Q
b100011110000100010000000000000000000000000000000000010100000000000000000110111101110110100000000000000000000000000000110 R
b10000000001000000000000000000000000000 S
b10101100011001000000000000001010 E
b10101100011001000000000000001010 {
b100000 #
b100000 ("
b100000 U
b100000 y
1!
#36
1;
b10 @"
0!
#37
0p
b0 :
b0 m
b0 ?"
0o
b100 @
b100 -"
0$
0`
b10 O
b10 _
1a
08
05
0M
b10001 K
10
1?
b0 N
b0 Y
bz +
bz $"
bz 7"
b0 A
b0 t
b0 }
b111111 2
b111111 ^
b111111 '"
0g
0j
b0 *
b0 n
b0 1"
b0 L
b0 W
b0 x
1l
b1111111011101101 H
b1111111011101101 f
b100 9
b100 *"
b100 +"
b0 r
b111111 3
b111111 %"
b10 \
b0x0 J
bx Z
xw
x0"
b0 ."
b0 [
b0 v
b0 u
b0 V
b100 )
b100 k
b10 I
1d
b1101111011101101 c
b10000 b
0#"
b0 (
b0 8"
b10001100111001000000000000001010 E
b10001100111001000000000000001010 {
b0 #
b0 ("
b0 U
b0 y
b11111100000000000000000000000000 S
b10x00xxx0x0000000000000000000000000000000000000000000000000000000000000000000000000000000000000000000000000000000000 R
b10010010000000000000000110111101110110100000000000000000000000000010000 Q
b0zzzzzzzzzzzzzzzzzzzzzzzzzzzzzzzz T
1!
#38
0;
b0 @"
0!
