Test.vcd
$date
	Sun Jun  7 14:36:20 2020
$end
$version
	Icarus Verilog
$end
$timescale
	1s
$end
$scope module PipelinedMIPS_tb $end
$var reg 1 ! Clk $end
$var reg 1 " Rst $end
$scope module P5SMIPS $end
$var wire 1 ! Clk $end
$var wire 32 # PCout [31:0] $end
$var wire 1 $ PCsrc $end
$var wire 1 " Rst $end
$var wire 1 % branch_zero $end
$var wire 1 & memHaz $end
$var wire 1 ' zero_eqdet $end
$var wire 5 ( writeReg3 [4:0] $end
$var wire 5 ) writeReg2 [4:0] $end
$var wire 5 * writeReg [4:0] $end
$var wire 32 + writeData [31:0] $end
$var wire 5 , stall [4:0] $end
$var wire 5 - rtSel [4:0] $end
$var wire 5 . rsSel [4:0] $end
$var wire 1 / regWrite $end
$var wire 1 0 regDst $end
$var wire 5 1 rdSel [4:0] $end
$var wire 6 2 opCode_nop [5:0] $end
$var wire 6 3 opCode [5:0] $end
$var wire 1 4 nop $end
$var wire 1 5 memtoreg $end
$var wire 1 6 memWrite $end
$var wire 1 7 memRead $end
$var wire 1 8 jump $end
$var wire 32 9 inc4_PC [31:0] $end
$var wire 1 : iMemError $end
$var wire 2 ; hazType [1:0] $end
$var wire 1 < flush $end
$var wire 32 = data2 [31:0] $end
$var wire 32 > data1 [31:0] $end
$var wire 1 ? dMemError $end
$var wire 1 @ branch $end
$var wire 1 A Zero $end
$var wire 32 B PCin [31:0] $end
$var wire 32 C Offset_add [31:0] $end
$var wire 1 D MEM_memWrite $end
$var wire 1 E MEM_memRead $end
$var wire 32 F JuOffset32 [31:0] $end
$var wire 28 G JuOffset28 [27:0] $end
$var wire 32 H JA_BA [31:0] $end
$var wire 32 I Instruction [31:0] $end
$var wire 32 J ImOffset [31:0] $end
$var wire 32 K Extdata [31:0] $end
$var wire 32 L DO [31:0] $end
$var wire 2 M ControlWire3 [1:0] $end
$var wire 4 N ControlWire2 [3:0] $end
$var wire 8 O ControlWire1 [7:0] $end
$var wire 32 P B [31:0] $end
$var wire 1 Q ALUsrc $end
$var wire 32 R ALUresult [31:0] $end
$var wire 2 S ALUOp [1:0] $end
$var wire 4 T ALUCnt [3:0] $end
$var reg 73 U EX_MEM_pipereg [72:0] $end
$var reg 120 V ID_EX_pipereg [119:0] $end
$var reg 64 W IF_ID_pipereg [63:0] $end
$var reg 71 X MEM_WB_pipereg [70:0] $end
$var reg 32 Y PC_reg [31:0] $end
$scope module ALU0 $end
$var wire 32 Z A [31:0] $end
$var wire 1 A Zero $end
$var wire 32 [ B [31:0] $end
$var wire 4 \ AluOp [3:0] $end
$var reg 32 ] ALUresult [31:0] $end
$upscope $end
$scope module ALU1 $end
$var wire 2 ^ AluOp [1:0] $end
$var wire 6 _ Funct [5:0] $end
$var wire 6 ` Imm [5:0] $end
$var reg 4 a ALUCnt [3:0] $end
$upscope $end
$scope module CUnit $end
$var wire 6 b Instruction [5:0] $end
$var wire 2 c ALUOp [1:0] $end
$var reg 1 d ALUOp0 $end
$var reg 1 e ALUOp1 $end
$var reg 1 Q ALUsrc $end
$var reg 1 @ Branch $end
$var reg 1 8 Jump $end
$var reg 1 7 MemRead $end
$var reg 1 6 MemWrite $end
$var reg 1 5 MemtoReg $end
$var reg 1 0 RegDst $end
$var reg 1 / RegWrite $end
$upscope $end
$scope module DataMemory $end
$var wire 32 f Address [31:0] $end
$var wire 1 ! Clk $end
$var wire 1 " Rst $end
$var wire 32 g WriteData [31:0] $end
$var wire 1 E memRead $end
$var wire 1 D memWrite $end
$var wire 32 h ReadData1 [31:0] $end
$var wire 32 i ReadData [31:0] $end
$var reg 1 ? DMemError $end
$upscope $end
$scope module HazUnit $end
$var wire 1 j EX_memRead $end
$var wire 1 k EX_regWen $end
$var wire 5 l ID_Rs [4:0] $end
$var wire 5 m ID_Rt [4:0] $end
$var wire 5 n MEM_Rd [4:0] $end
$var wire 1 E MEM_memRead $end
$var wire 1 D MEM_memWrite $end
$var wire 1 o MEM_regWen $end
$var wire 1 % branch $end
$var wire 1 8 jump $end
$var wire 1 & memHaz $end
$var wire 2 p hazType [1:0] $end
$var wire 5 q EX_Rd [4:0] $end
$var reg 1 r flush $end
$var reg 1 s hazFlag $end
$var reg 1 t stall $end
$upscope $end
$scope module ImmAddressAdder $end
$var wire 32 u A [31:0] $end
$var wire 32 v B [31:0] $end
$var reg 32 w Result [31:0] $end
$upscope $end
$scope module InputSelectALU $end
$var wire 32 x I0 [31:0] $end
$var wire 32 y I1 [31:0] $end
$var wire 1 z Sel $end
$var wire 32 { Out [31:0] $end
$upscope $end
$scope module InstructionMemory $end
$var wire 32 | Address [31:0] $end
$var wire 1 ! Clk $end
$var wire 1 } Rst $end
$var wire 32 ~ Data [31:0] $end
$var reg 1 : IMemError $end
$upscope $end
$scope module JumpAddressSel $end
$var wire 32 !" I0 [31:0] $end
$var wire 32 "" I1 [31:0] $end
$var wire 1 @ Sel $end
$var wire 32 #" Out [31:0] $end
$upscope $end
$scope module MemorySelMux $end
$var wire 32 $" I0 [31:0] $end
$var wire 32 %" I1 [31:0] $end
$var wire 1 &" Sel $end
$var wire 32 '" Out [31:0] $end
$upscope $end
$scope module NOPinsert $end
$var wire 6 (" I0 [5:0] $end
$var wire 6 )" I1 [5:0] $end
$var wire 1 4 Sel $end
$var wire 6 *" Out [5:0] $end
$upscope $end
$scope module PCAddressIncrement $end
$var wire 32 +" A [31:0] $end
$var wire 32 ," B [31:0] $end
$var reg 32 -" Result [31:0] $end
$upscope $end
$scope module PCSelect $end
$var wire 32 ." I0 [31:0] $end
$var wire 32 /" I1 [31:0] $end
$var wire 1 $ Sel $end
$var wire 32 0" Out [31:0] $end
$upscope $end
$scope module RdRtSelRF $end
$var wire 5 1" I0 [4:0] $end
$var wire 5 2" I1 [4:0] $end
$var wire 1 3" Sel $end
$var wire 5 4" Out [4:0] $end
$upscope $end
$scope module Registers $end
$var wire 1 ! Clk $end
$var wire 1 " Rst $end
$var wire 32 5" data1 [31:0] $end
$var wire 32 6" data2 [31:0] $end
$var wire 5 7" read1 [4:0] $end
$var wire 5 8" read2 [4:0] $end
$var wire 1 9" regWen $end
$var wire 32 :" writeData [31:0] $end
$var wire 5 ;" writeReg [4:0] $end
$upscope $end
$scope module Shiftby2 $end
$var wire 32 <" Out [31:0] $end
$var wire 32 =" In [31:0] $end
$upscope $end
$scope module Shiftby2Jump $end
$var wire 26 >" In [25:0] $end
$var wire 28 ?" Out [27:0] $end
$upscope $end
$scope module SignExtend $end
$var wire 16 @" In [15:0] $end
$var wire 32 A" Out [31:0] $end
$upscope $end
$scope module pipRegCntrl $end
$var wire 1 ! Clk $end
$var wire 2 B" hazType [1:0] $end
$var reg 1 < flush $end
$var reg 1 4 nop $end
$var reg 5 C" stall [4:0] $end
$upscope $end
$upscope $end
$upscope $end
$enddefinitions $end
#0
$dumpvars
b0 C"
b0 B"
bx A"
bx @"
bx00 ?"
bx >"
bx ="
bx00 <"
bx ;"
bx :"
x9"
bx 8"
bx 7"
bx 6"
bx 5"
bx 4"
x3"
bx 2"
bx 1"
bx 0"
bx /"
bx ."
bx -"
b100 ,"
bx +"
bx *"
b111111 )"
bx ("
bx '"
x&"
bx %"
bx $"
bx #"
bx ""
bx00 !"
bx ~
z}
bx |
bx {
xz
bx y
bx x
bx w
bx00 v
bx u
0t
0s
0r
bx q
b0 p
xo
bx n
bx m
bx l
xk
xj
bx i
bx h
bx g
bx f
xe
xd
bx c
bx b
bx a
bx `
bx _
bx ^
bx ]
bx \
bx [
bx Z
bx Y
bx X
bx W
bx V
bx U
bx T
bx S
bx R
xQ
bx P
bx O
bx N
bx M
bx L
bx K
bx00 J
bx I
bx H
bx00 G
bx00 F
xE
xD
bx C
bx B
xA
x@
0?
bx >
bx =
0<
b0 ;
0:
bx 9
x8
x7
x6
x5
04
bx 3
bx 2
bx 1
x0
x/
bx .
bx -
b0 ,
bx +
bx *
bx )
bx (
x'
0&
x%
x$
bx #
0"
1!
$end
#1
0$
0%
0d
b10 S
b10 c
1e
08
0@
06
07
0/
05
0Q
b10001 O
10
1A
b0 R
b0 ]
b100 B
b100 0"
b0 H
b0 #"
b0 /"
b0 C
b0 w
b0 ""
bz L
bz i
1'
b0 J
b0 v
b0 <"
b0 +
b0 '"
b0 :"
0o
bz h
0k
0j
b10 T
b10 \
b10 a
b0 P
b0 [
b0 {
b0 *
b0 q
b0 4"
b111111 2
b111111 b
b111111 *"
b0 K
b0 ="
b0 A"
b0 (
b0 ;"
09"
b0 $"
b0 %"
0&"
0E
0D
b0 M
b0 )
b0 n
b0 f
b0 g
b0 N
b0 Z
b0 ^
b0 _
b0 `
b0 x
b0 y
0z
b0 1"
b0 2"
03"
b0 >
b0 5"
b0 .
b0 l
b0 7"
b0 =
b0 6"
b0 -
b0 m
b0 8"
b0 1
b111111 3
b111111 ("
b0 @"
b0 F
b0 !"
b0 G
b0 ?"
b0 >"
b0 u
b0 X
b0 U
b0 V
b11111100000000000000000000000000 W
b100 9
b100 -"
b100 ."
b10001100111001000000000000001010 I
b10001100111001000000000000001010 ~
b0 #
b0 +"
b0 Y
b0 |
1"
#2
0!
#3
b0 S
b0 c
0e
17
1/
1Q
b11000010 O
00
0'
b101000 J
b101000 v
b101000 <"
bz +
bz '"
bz :"
b1101 T
b1101 \
b1101 a
b101100 C
b101100 w
b101100 ""
b100011 2
b100011 b
b100011 *"
b1010 K
b1010 ="
b1010 A"
b11100100000000000000101000 H
b11100100000000000000101000 #"
b11100100000000000000101000 /"
b1000 B
b1000 0"
bz $"
b111111 `
b10 ^
13"
b100 u
b10 >
b10 5"
b111 .
b111 l
b111 7"
b1101111010101111 =
b1101111010101111 6"
b100 -
b100 m
b100 8"
b100011 3
b100011 ("
b1010 @"
b11100100000000000000101000 F
b11100100000000000000101000 !"
b11100100000000000000101000 G
b11100100000000000000101000 ?"
b111001000000000000001010 >"
b1000 9
b1000 -"
b1000 ."
b0zzzzzzzzzzzzzzzzzzzzzzzzzzzzzzzz X
b111111000100010000000000000000000000000000000000000000000000000000000000000000000000000000000000000000000000000000000000 V
b10010001100111001000000000000001010 W
b100010000101000000100010 I
b100010000101000000100010 ~
b100 #
b100 +"
b100 Y
b100 |
1!
#4
0!
#5
0/
b11 ,
b11 C"
14
1s
b1 ;
b1 p
b1 B"
1t
b10 S
b10 c
1e
07
05
0Q
b10001 O
10
0A
b1100 R
b1100 ]
b10100000010001000 J
b10100000010001000 v
b10100000010001000 <"
b100 *
b100 q
b100 4"
b1100 B
b1100 0"
b10100000010010000 C
b10100000010010000 w
b10100000010010000 ""
b111111 2
b111111 b
b111111 *"
b101000000100010 K
b101000000100010 ="
b101000000100010 A"
b10001000010100000010001000 H
b10001000010100000010001000 #"
b10001000010100000010001000 /"
1k
1j
b10 T
b10 \
b10 a
b1010 P
b1010 [
b1010 {
b1100 9
b1100 -"
b1100 ."
b1000 u
b1101111010101111 >
b1101111010101111 5"
b100 .
b100 l
b100 7"
b111110 =
b111110 6"
b1000 -
b1000 m
b1000 8"
b1010 1
b0 3
b0 ("
b101000000100010 @"
b10001000010100000010001000 F
b10001000010100000010001000 !"
b10001000010100000010001000 G
b10001000010100000010001000 ?"
b100010000101000000100010 >"
b100011 `
b1001 N
b0 ^
1z
03"
b100 1"
b1010 _
b1010 y
b1101111010101111 x
b10 Z
b10000001000100000000000000011 I
b10000001000100000000000000011 ~
b1000 #
b1000 +"
b1000 Y
b1000 |
b100000000000100010000101000000100010 W
b100011110000100010000000000000000000000000000000000010100000000000000000110111101010111100000000000000000000000000000010 V
1!
#6
0!
#7
1s
b1101111001110001 R
b1101111001110001 ]
b1101111011101101 L
b1101111011101101 i
b1101111011101101 h
1o
0k
0j
b1010 *
b1010 q
b1010 4"
b110 T
b110 \
b110 a
b111110 P
b111110 [
b111110 {
b100 )
b100 n
1E
b10 M
b1101111010101111 g
b1100 f
b111111 `
b0 N
b10 ^
0z
13"
b1000 1"
b1010 2"
b100010 _
b101000000100010 y
b111110 x
b1101111010101111 Z
b10010010000000000000000110111101010111100000000000000000000000000001100 U
b111111000100010100001010000000000000000001010000001000100000000000000000000000000011111000000000000000001101111010101111 V
1!
#8
0!
#9
1/
b1010101 O
15
b0 2
b0 b
b0 *"
b0 ,
b0 C"
04
b0 ;
b0 p
b0 B"
0t
0s
bz L
bz i
0o
bz h
b1101111011101101 +
b1101111011101101 '"
b1101111011101101 :"
b1010 )
b1010 n
0E
b0 M
b111110 g
b1101111001110001 f
19"
b100 (
b100 ;"
b1100 %"
b1101111011101101 $"
b101000000000000000000000000000000011111000000000000000001101111001110001 U
b10001000000000000000000000000000000110000000000000000001101111011101101 X
1!
#10
b1101111011101101 >
b1101111011101101 5"
0!
#11
1<
1s
b10 ;
b10 p
b10 B"
1r
1$
1%
1d
b1 S
b1 c
0e
1@
0/
x5
b1x0x O
x0
b1101111010101111 R
b1101111010101111 ]
1'
b1100 J
b1100 v
b1100 <"
bz +
bz '"
bz :"
1k
b11000 C
b11000 w
b11000 ""
b100 2
b100 b
b100 *"
b11 K
b11 ="
b11 A"
b11000 H
b11000 #"
b11000 /"
b11000 B
b11000 0"
09"
b1010 (
b1010 ;"
b1101111001110001 %"
bz $"
b0 `
b1010 N
b1101111011101101 Z
b1100 u
b1010 >
b1010 5"
b1 .
b1 l
b1 7"
b1010 =
b1010 6"
b10 -
b10 m
b10 8"
b0 1
b100 3
b100 ("
b11 @"
b100010000000000000001100 F
b100010000000000000001100 !"
b100010000000000000001100 G
b100010000000000000001100 ?"
b1000100000000000000011 >"
b10000 9
b10000 -"
b10000 ."
b101000000000000000001101111001110001zzzzzzzzzzzzzzzzzzzzzzzzzzzzzzzz X
b10101010100001010000000000000000001010000001000100000000000000000000000000011111000000000000000001101111011101101 V
b110000010000001000100000000000000011 W
b1010001010110000000100100 I
b1010001010110000000100100 ~
b1100 #
b1100 +"
b1100 Y
b1100 |
1!
#12
0!
#13
0<
0s
b0 ;
b0 p
b0 B"
0r
0$
0%
0d
b10 S
b10 c
1e
0@
05
b10001 O
10
1A
b0 R
b0 ]
b11100 B
b11100 0"
b0 H
b0 #"
b0 /"
b0 J
b0 v
b0 <"
b0 C
b0 w
b0 ""
b111111 2
b111111 b
b111111 *"
b0 K
b0 ="
b0 A"
0k
b0x0 *
b0x0 q
b0x0 4"
b1010 P
b1010 [
b1010 {
1o
b11100 9
b11100 -"
b11100 ."
b0 u
b0 >
b0 5"
b0 .
b0 l
b0 7"
b0 =
b0 6"
b0 -
b0 m
b0 8"
b111111 3
b111111 ("
b0 @"
b0 F
b0 !"
b0 G
b0 ?"
b0 >"
b100 `
b0x0 N
b1 ^
x3"
b10 1"
b0 2"
b11 _
b11 y
b1010 x
b1010 Z
b11 M
b1101111010101111 f
b10001100110001000000000000001010 I
b10001100110001000000000000001010 ~
b11000 #
b11000 +"
b11000 Y
b11000 |
b11111100000000000000000000000000 W
b10000001x0x0001000000000000000000000000000000000000110000000000000000000000000000101000000000000000000000000000001010 V
b101010100000000000000000000000000011111000000000000000001101111010101111 U
1!
#14
0!
#15
b0 S
b0 c
0e
17
1/
1Q
b11000010 O
00
1A
b0 R
b0 ]
b1101111010101111 +
b1101111010101111 '"
b1101111010101111 :"
0'
b101000 J
b101000 v
b101000 <"
0o
b0 *
b0 q
b0 4"
b1101 T
b1101 \
b1101 a
b0 P
b0 [
b0 {
b1000100 C
b1000100 w
b1000100 ""
b100011 2
b100011 b
b100011 *"
b1010 K
b1010 ="
b1010 A"
b11000100000000000000101000 H
b11000100000000000000101000 #"
b11000100000000000000101000 /"
b100000 B
b100000 0"
19"
1&"
b1101111010101111 %"
b0x0 )
b0x0 n
b0x M
b1010 g
b0 f
b111111 `
b0 N
b10 ^
13"
b0 1"
b0 _
b0 y
b0 x
b0 Z
b11100 u
b110 >
b110 5"
b110 .
b110 l
b110 7"
b1101111011101101 =
b1101111011101101 6"
b100 -
b100 m
b100 8"
b100011 3
b100011 ("
b1010 @"
b11000100000000000000101000 F
b11000100000000000000101000 !"
b11000100000000000000101000 G
b11000100000000000000101000 ?"
b110001000000000000001010 >"
b100000 9
b100000 -"
b100000 ."
b110101000000000000000001101111010101111zzzzzzzzzzzzzzzzzzzzzzzzzzzzzzzz X
b0x000x00000000000000000000000000000101000000000000000000000000000000000 U
b111111000100010000000000000000000000000000000000000000000000000000000000000000000000000000000000000000000000000000000000 V
b1110010001100110001000000000000001010 W
b1000000000000000000000000000 I
b1000000000000000000000000000 ~
b11100 #
b11100 +"
b11100 Y
b11100 |
1!
#16
0!
#17
1<
1s
b10 ;
b10 p
b10 B"
1r
1$
xd
bx S
bx c
xe
18
07
0/
x5
xQ
bx00xxx0x O
x0
0A
b10000 R
b10000 ]
1'
b0 J
b0 v
b0 <"
b100 *
b100 q
b100 4"
b0 B
b0 0"
b100000 C
b100000 w
b100000 ""
b10 2
b10 b
b10 *"
b0 K
b0 ="
b0 A"
b0 H
b0 #"
b0 /"
1k
1j
b10 T
b10 \
b10 a
b1010 P
b1010 [
b1010 {
bx +
bx '"
bx :"
b100100 9
b100100 -"
b100100 ."
b100000 u
b0 >
b0 5"
b0 .
b0 l
b0 7"
b0 =
b0 6"
b0 -
b0 m
b0 8"
b10 3
b10 ("
b0 @"
b0 F
b0 !"
b0 G
b0 ?"
b0 >"
b100011 `
b1001 N
b0 ^
1z
03"
b100 1"
b1010 _
b1010 y
b1101111011101101 x
b110 Z
b0 )
b0 n
b0 M
b0 g
09"
x&"
b0x0 (
b0x0 ;"
b0 %"
b10101100011001000000000000001010 I
b10101100011001000000000000001010 ~
b100000 #
b100000 +"
b100000 Y
b100000 |
b10000000001000000000000000000000000000 W
b100011110000100010000000000000000000000000000000000010100000000000000000110111101110110100000000000000000000000000000110 V
b0 U
b0x000x000000000000000000000000000000000zzzzzzzzzzzzzzzzzzzzzzzzzzzzzzzz X
1!
#18
0!
#19
0<
0s
b0 ;
b0 p
b0 B"
0r
b100 B
b100 0"
0$
1A
0d
b10 S
b10 c
1e
08
05
0Q
b10001 O
10
b0 R
b0 ]
bz +
bz '"
bz :"
b1111111011101101 L
b1111111011101101 i
b1111111011101101 h
1o
0k
0j
b0 *
b0 q
b0 4"
b0 P
b0 [
b0 {
b0 C
b0 w
b0 ""
b111111 2
b111111 b
b111111 *"
0&"
b0 (
b0 ;"
b100 )
b100 n
1E
b10 M
b1101111011101101 g
b10000 f
b10 `
b0x0 N
bx ^
xz
x3"
b0 1"
b0 _
b0 y
b0 x
b0 Z
b0 u
b111111 3
b111111 ("
b100 9
b100 -"
b100 ."
b0zzzzzzzzzzzzzzzzzzzzzzzzzzzzzzzz X
b10010010000000000000000110111101110110100000000000000000000000000010000 U
b10x00xxx0x0000000000000000000000000000000000000000000000000000000000000000000000000000000000000000000000000000000000 V
b11111100000000000000000000000000 W
b10001100111001000000000000001010 I
b10001100111001000000000000001010 ~
b0 #
b0 +"
b0 Y
b0 |
1!
#20
0!
#21
b0 S
b0 c
0e
17
1/
1Q
b11000010 O
00
0'
b101000 J
b101000 v
b101000 <"
bz L
bz i
b1000 B
b1000 0"
b101100 C
b101100 w
b101100 ""
b100011 2
b100011 b
b100011 *"
b1010 K
b1010 ="
b1010 A"
b11100100000000000000101000 H
b11100100000000000000101000 #"
b11100100000000000000101000 /"
b1101 T
b1101 \
b1101 a
0o
bz h
b1111111011101101 +
b1111111011101101 '"
b1111111011101101 :"
b1000 9
b1000 -"
b1000 ."
b100 u
b10 >
b10 5"
b111 .
b111 l
b111 7"
b1101111011101101 =
b1101111011101101 6"
b100 -
b100 m
b100 8"
b100011 3
b100011 ("
b1010 @"
b11100100000000000000101000 F
b11100100000000000000101000 !"
b11100100000000000000101000 G
b11100100000000000000101000 ?"
b111001000000000000001010 >"
b111111 `
b0 N
b10 ^
0z
13"
b0 )
b0 n
0E
b0x M
b0 g
b0 f
19"
b100 (
b100 ;"
b10000 %"
b1111111011101101 $"
b100010000101000000100010 I
b100010000101000000100010 ~
b100 #
b100 +"
b100 Y
b100 |
b10010001100111001000000000000001010 W
b111111000100010000000000000000000000000000000000000000000000000000000000000000000000000000000000000000000000000000000000 V
b0x00000000000000000000000000000000000000000000000000000000000000000 U
b10001000000000000000000000000000001000000000000000000001111111011101101 X
1!
#22
b1111111011101101 =
b1111111011101101 6"
0!
#23
0/
b11 ,
b11 C"
14
1s
b1 ;
b1 p
b1 B"
1t
b10 S
b10 c
1e
07
05
0Q
b10001 O
10
0A
b1100 R
b1100 ]
b100 *
b100 q
b100 4"
b10100000010001000 J
b10100000010001000 v
b10100000010001000 <"
bx +
bx '"
bx :"
1k
1j
b10 T
b10 \
b10 a
b1010 P
b1010 [
b1010 {
b10100000010010000 C
b10100000010010000 w
b10100000010010000 ""
b111111 2
b111111 b
b111111 *"
b101000000100010 K
b101000000100010 ="
b101000000100010 A"
b10001000010100000010001000 H
b10001000010100000010001000 #"
b10001000010100000010001000 /"
b1100 B
b1100 0"
09"
x&"
b0 (
b0 ;"
b0 %"
bz $"
b0 M
b100011 `
b1001 N
b0 ^
1z
03"
b100 1"
b1010 _
b1010 y
b1111111011101101 x
b10 Z
b1000 u
b1111111011101101 >
b1111111011101101 5"
b100 .
b100 l
b100 7"
b111110 =
b111110 6"
b1000 -
b1000 m
b1000 8"
b1010 1
b0 3
b0 ("
b101000000100010 @"
b10001000010100000010001000 F
b10001000010100000010001000 !"
b10001000010100000010001000 G
b10001000010100000010001000 ?"
b100010000101000000100010 >"
b1100 9
b1100 -"
b1100 ."
b0x0000000000000000000000000000000000000zzzzzzzzzzzzzzzzzzzzzzzzzzzzzzzz X
b0 U
b100011110000100010000000000000000000000000000000000010100000000000000000111111101110110100000000000000000000000000000010 V
b100000000000100010000101000000100010 W
b10000001000100000000000000011 I
b10000001000100000000000000011 ~
b1000 #
b1000 +"
b1000 Y
b1000 |
1!
#24
0!
#25
b1111111010101111 R
b1111111010101111 ]
1s
b1101111011101101 L
b1101111011101101 i
bz +
bz '"
bz :"
0k
0j
b1010 *
b1010 q
b1010 4"
b110 T
b110 \
b110 a
b111110 P
b111110 [
b111110 {
b1101111011101101 h
1o
b111111 `
b0 N
b10 ^
0z
13"
b1000 1"
b1010 2"
b100010 _
b101000000100010 y
b111110 x
b1111111011101101 Z
b100 )
b100 n
1E
b10 M
b1111111011101101 g
b1100 f
0&"
b111111000100010100001010000000000000000001010000001000100000000000000000000000000011111000000000000000001111111011101101 V
b10010010000000000000000111111101110110100000000000000000000000000001100 U
b0zzzzzzzzzzzzzzzzzzzzzzzzzzzzzzzz X
1!
#26
0!
#27
1/
b1010101 O
15
b0 2
b0 b
b0 *"
b0 ,
b0 C"
04
b0 ;
b0 p
b0 B"
0t
0s
bz L
bz i
b1101111011101101 +
b1101111011101101 '"
b1101111011101101 :"
0o
bz h
19"
b100 (
b100 ;"
b1100 %"
b1101111011101101 $"
b1010 )
b1010 n
0E
b0 M
b111110 g
b1111111010101111 f
b10001000000000000000000000000000000110000000000000000001101111011101101 X
b101000000000000000000000000000000011111000000000000000001111111010101111 U
1!
#28
b1101111011101101 >
b1101111011101101 5"
0!
#29
1<
1s
b10 ;
b10 p
b10 B"
1r
1$
1%
1d
b1 S
b1 c
0e
1@
0/
x5
b1x0x O
x0
b1101111010101111 R
b1101111010101111 ]
1'
b1100 J
b1100 v
b1100 <"
b11000 B
b11000 0"
b11000 C
b11000 w
b11000 ""
b100 2
b100 b
b100 *"
b11 K
b11 ="
b11 A"
b11000 H
b11000 #"
b11000 /"
1k
bz +
bz '"
bz :"
b10000 9
b10000 -"
b10000 ."
b1100 u
b1010 >
b1010 5"
b1 .
b1 l
b1 7"
b1010 =
b1010 6"
b10 -
b10 m
b10 8"
b0 1
b100 3
b100 ("
b11 @"
b100010000000000000001100 F
b100010000000000000001100 !"
b100010000000000000001100 G
b100010000000000000001100 ?"
b1000100000000000000011 >"
b0 `
b1010 N
b1101111011101101 Z
09"
b1010 (
b1010 ;"
b1111111010101111 %"
bz $"
b1010001010110000000100100 I
b1010001010110000000100100 ~
b1100 #
b1100 +"
b1100 Y
b1100 |
b110000010000001000100000000000000011 W
b10101010100001010000000000000000001010000001000100000000000000000000000000011111000000000000000001101111011101101 V
b101000000000000000001111111010101111zzzzzzzzzzzzzzzzzzzzzzzzzzzzzzzz X
1!
#30
0!
#31
0<
0s
b0 ;
b0 p
b0 B"
0r
0$
0%
1A
0d
b10 S
b10 c
1e
0@
05
b10001 O
10
b0 R
b0 ]
b11100 B
b11100 0"
b0 H
b0 #"
b0 /"
b0 J
b0 v
b0 <"
1o
0k
b0x0 *
b0x0 q
b0x0 4"
b1010 P
b1010 [
b1010 {
b0 C
b0 w
b0 ""
b111111 2
b111111 b
b111111 *"
b0 K
b0 ="
b0 A"
b11 M
b1101111010101111 f
b100 `
b0x0 N
b1 ^
x3"
b10 1"
b0 2"
b11 _
b11 y
b1010 x
b1010 Z
b0 u
b0 >
b0 5"
b0 .
b0 l
b0 7"
b0 =
b0 6"
b0 -
b0 m
b0 8"
b111111 3
b111111 ("
b0 @"
b0 F
b0 !"
b0 G
b0 ?"
b0 >"
b11100 9
b11100 -"
b11100 ."
b101010100000000000000000000000000011111000000000000000001101111010101111 U
b10000001x0x0001000000000000000000000000000000000000110000000000000000000000000000101000000000000000000000000000001010 V
b11111100000000000000000000000000 W
b10001100110001000000000000001010 I
b10001100110001000000000000001010 ~
b11000 #
b11000 +"
b11000 Y
b11000 |
1!
#32
0!
#33
b0 S
b0 c
0e
17
1/
1Q
b11000010 O
00
1A
b0 R
b0 ]
0'
b101000 J
b101000 v
b101000 <"
b1101111010101111 +
b1101111010101111 '"
b1101111010101111 :"
b100000 B
b100000 0"
b1000100 C
b1000100 w
b1000100 ""
b100011 2
b100011 b
b100011 *"
b1010 K
b1010 ="
b1010 A"
b11000100000000000000101000 H
b11000100000000000000101000 #"
b11000100000000000000101000 /"
b0 *
b0 q
b0 4"
b1101 T
b1101 \
b1101 a
b0 P
b0 [
b0 {
0o
b100000 9
b100000 -"
b100000 ."
b11100 u
b110 >
b110 5"
b110 .
b110 l
b110 7"
b1101111011101101 =
b1101111011101101 6"
b100 -
b100 m
b100 8"
b100011 3
b100011 ("
b1010 @"
b11000100000000000000101000 F
b11000100000000000000101000 !"
b11000100000000000000101000 G
b11000100000000000000101000 ?"
b110001000000000000001010 >"
b111111 `
b0 N
b10 ^
13"
b0 1"
b0 _
b0 y
b0 x
b0 Z
b0x0 )
b0x0 n
b0x M
b1010 g
b0 f
19"
1&"
b1101111010101111 %"
b1000000000000000000000000000 I
b1000000000000000000000000000 ~
b11100 #
b11100 +"
b11100 Y
b11100 |
b1110010001100110001000000000000001010 W
b111111000100010000000000000000000000000000000000000000000000000000000000000000000000000000000000000000000000000000000000 V
b0x000x00000000000000000000000000000101000000000000000000000000000000000 U
b110101000000000000000001101111010101111zzzzzzzzzzzzzzzzzzzzzzzzzzzzzzzz X
1!
#34
0!
#35
1<
1s
b10 ;
b10 p
b10 B"
1r
1$
xd
bx S
bx c
xe
18
07
0/
x5
xQ
bx00xxx0x O
x0
0A
b10000 R
b10000 ]
b100 *
b100 q
b100 4"
1'
b0 J
b0 v
b0 <"
bx +
bx '"
bx :"
1k
1j
b10 T
b10 \
b10 a
b1010 P
b1010 [
b1010 {
b100000 C
b100000 w
b100000 ""
b10 2
b10 b
b10 *"
b0 K
b0 ="
b0 A"
b0 H
b0 #"
b0 /"
b0 B
b0 0"
09"
x&"
b0x0 (
b0x0 ;"
b0 %"
b0 )
b0 n
b0 M
b0 g
b100011 `
b1001 N
b0 ^
1z
03"
b100 1"
b1010 _
b1010 y
b1101111011101101 x
b110 Z
b100000 u
b0 >
b0 5"
b0 .
b0 l
b0 7"
b0 =
b0 6"
b0 -
b0 m
b0 8"
b10 3
b10 ("
b0 @"
b0 F
b0 !"
b0 G
b0 ?"
b0 >"
b100100 9
b100100 -"
b100100 ."
b0x000x000000000000000000000000000000000zzzzzzzzzzzzzzzzzzzzzzzzzzzzzzzz X
b0 U
b100011110000100010000000000000000000000000000000000010100000000000000000110111101110110100000000000000000000000000000110 V
b10000000001000000000000000000000000000 W
b10101100011001000000000000001010 I
b10101100011001000000000000001010 ~
b100000 #
b100000 +"
b100000 Y
b100000 |
1!
#36
0!
#37
0<
0s
b0 ;
b0 p
b0 B"
0r
b100 B
b100 0"
0$
0d
b10 S
b10 c
1e
08
05
0Q
b10001 O
10
1A
b0 R
b0 ]
b1111111011101101 L
b1111111011101101 i
bz +
bz '"
bz :"
b0 C
b0 w
b0 ""
b111111 2
b111111 b
b111111 *"
0k
0j
b0 *
b0 q
b0 4"
b0 P
b0 [
b0 {
b1111111011101101 h
1o
b100 9
b100 -"
b100 ."
b0 u
b111111 3
b111111 ("
b10 `
b0x0 N
bx ^
xz
x3"
b0 1"
b0 _
b0 y
b0 x
b0 Z
b100 )
b100 n
1E
b10 M
b1101111011101101 g
b10000 f
0&"
b0 (
b0 ;"
b10001100111001000000000000001010 I
b10001100111001000000000000001010 ~
b0 #
b0 +"
b0 Y
b0 |
b11111100000000000000000000000000 W
b10x00xxx0x0000000000000000000000000000000000000000000000000000000000000000000000000000000000000000000000000000000000 V
b10010010000000000000000110111101110110100000000000000000000000000010000 U
b0zzzzzzzzzzzzzzzzzzzzzzzzzzzzzzzz X
1!
#38
0!
