Test.vcd
$date
	Sun May 31 15:50:15 2020
$end
$version
	Icarus Verilog
$end
$timescale
	1s
$end
$scope module PipelinedMIPS_tb $end
$var reg 1 ! Clk $end
$var reg 1 " Rst $end
$scope module P5SMIPS $end
$var wire 1 ! Clk $end
$var wire 32 # PCout [31:0] $end
$var wire 1 $ PCsrc $end
$var wire 1 " Rst $end
$var wire 1 % zero $end
$var wire 5 & writeReg [4:0] $end
$var wire 32 ' writeData [31:0] $end
$var wire 5 ( rtSel [4:0] $end
$var wire 5 ) rsSel [4:0] $end
$var wire 1 * regWrite $end
$var wire 1 + regDst $end
$var wire 5 , rdSel [4:0] $end
$var wire 6 - opCode [5:0] $end
$var wire 1 . memtoreg $end
$var wire 1 / memWrite $end
$var wire 1 0 memRead $end
$var wire 1 1 jump $end
$var wire 32 2 inc4_PC [31:0] $end
$var wire 32 3 data2 [31:0] $end
$var wire 32 4 data1 [31:0] $end
$var wire 1 5 branch $end
$var wire 1 6 Zero $end
$var wire 32 7 PCin [31:0] $end
$var wire 32 8 Offset_add [31:0] $end
$var wire 32 9 JuOffset32 [31:0] $end
$var wire 28 : JuOffset28 [27:0] $end
$var wire 32 ; JA_ALUout [31:0] $end
$var wire 32 < Instruction [31:0] $end
$var wire 32 = ImOffset [31:0] $end
$var wire 32 > Extdata [31:0] $end
$var wire 32 ? DO [31:0] $end
$var wire 2 @ ControlWire3 [1:0] $end
$var wire 7 A ControlWire2 [6:0] $end
$var wire 10 B ControlWire1 [9:0] $end
$var wire 32 C B [31:0] $end
$var wire 1 D ALUsrc $end
$var wire 32 E ALUresult [31:0] $end
$var wire 2 F ALUOp [1:0] $end
$var wire 4 G ALUCnt [3:0] $end
$var reg 108 H EX_MEM_pipereg [107:0] $end
$var reg 186 I ID_EX_pipereg [185:0] $end
$var reg 64 J IF_ID_pipereg [63:0] $end
$var reg 71 K MEM_WB_pipereg [70:0] $end
$var reg 32 L PC_reg [31:0] $end
$scope module ALU0 $end
$var wire 32 M A [31:0] $end
$var wire 1 6 Zero $end
$var wire 32 N B [31:0] $end
$var wire 4 O AluOp [3:0] $end
$var reg 32 P ALUresult [31:0] $end
$upscope $end
$scope module ALU1 $end
$var wire 2 Q AluOp [1:0] $end
$var wire 6 R Funct [5:0] $end
$var wire 6 S Imm [5:0] $end
$var reg 4 T ALUCnt [3:0] $end
$upscope $end
$scope module CUnit $end
$var wire 6 U Instruction [5:0] $end
$var wire 2 V ALUOp [1:0] $end
$var reg 1 W ALUOp0 $end
$var reg 1 X ALUOp1 $end
$var reg 1 D ALUsrc $end
$var reg 1 5 Branch $end
$var reg 1 1 Jump $end
$var reg 1 0 MemRead $end
$var reg 1 / MemWrite $end
$var reg 1 . MemtoReg $end
$var reg 1 + RegDst $end
$var reg 1 * RegWrite $end
$upscope $end
$scope module DataMemory $end
$var wire 32 Y Address [31:0] $end
$var wire 1 ! Clk $end
$var wire 1 " Rst $end
$var wire 32 Z WriteData [31:0] $end
$var wire 1 [ memRead $end
$var wire 1 \ memWrite $end
$var wire 32 ] ReadData [31:0] $end
$upscope $end
$scope module ImmediateAddressAdder $end
$var wire 32 ^ A [31:0] $end
$var wire 32 _ B [31:0] $end
$var reg 32 ` Result [31:0] $end
$upscope $end
$scope module InputSelectALU $end
$var wire 32 a I0 [31:0] $end
$var wire 32 b I1 [31:0] $end
$var wire 1 c Sel $end
$var wire 32 d Out [31:0] $end
$upscope $end
$scope module InstructionMemory $end
$var wire 32 e Address [31:0] $end
$var wire 1 ! Clk $end
$var wire 1 f Rst $end
$var wire 32 g Data [31:0] $end
$upscope $end
$scope module JumpAddressSel $end
$var wire 32 h I0 [31:0] $end
$var wire 32 i I1 [31:0] $end
$var wire 1 j Sel $end
$var wire 32 k Out [31:0] $end
$upscope $end
$scope module MemorySelMux $end
$var wire 32 l I0 [31:0] $end
$var wire 32 m I1 [31:0] $end
$var wire 1 n Sel $end
$var wire 32 o Out [31:0] $end
$upscope $end
$scope module PCAddressIncrement $end
$var wire 32 p A [31:0] $end
$var wire 32 q B [31:0] $end
$var reg 32 r Result [31:0] $end
$upscope $end
$scope module PCSelect $end
$var wire 32 s I0 [31:0] $end
$var wire 32 t I1 [31:0] $end
$var wire 1 $ Sel $end
$var wire 32 u Out [31:0] $end
$upscope $end
$scope module RdRtSelRF $end
$var wire 5 v I0 [4:0] $end
$var wire 5 w I1 [4:0] $end
$var wire 1 x Sel $end
$var wire 5 y Out [4:0] $end
$upscope $end
$scope module Registers $end
$var wire 1 ! Clk $end
$var wire 1 " Rst $end
$var wire 32 z data1 [31:0] $end
$var wire 32 { data2 [31:0] $end
$var wire 5 | read1 [4:0] $end
$var wire 5 } read2 [4:0] $end
$var wire 1 ~ regWen $end
$var wire 32 !" writeData [31:0] $end
$var wire 5 "" writeReg [4:0] $end
$upscope $end
$scope module Shiftby2 $end
$var wire 32 #" In [31:0] $end
$var wire 32 $" Out [31:0] $end
$upscope $end
$scope module Shiftby2Jump $end
$var wire 26 %" In [25:0] $end
$var wire 28 &" Out [27:0] $end
$upscope $end
$scope module SignExtend $end
$var wire 16 '" In [15:0] $end
$var wire 32 (" Out [31:0] $end
$upscope $end
$upscope $end
$upscope $end
$enddefinitions $end
#0
$dumpvars
b0 ("
b0 '"
b0 &"
b0 %"
b0 $"
b0 #"
b0 ""
b0 !"
0~
b0 }
b0 |
b0 {
b0 z
b0 y
0x
b0 w
b0 v
b100 u
b0 t
b100 s
b100 r
b100 q
b0 p
b0 o
0n
b0 m
b0 l
b0 k
0j
b0 i
b0 h
b10001101001010000000000000001010 g
zf
b0 e
b0 d
0c
b0 b
b0 a
b0 `
b0 _
b0 ^
bz ]
0\
0[
b0 Z
b0 Y
1X
0W
b10 V
b0 U
b10 T
b0 S
b0 R
b0 Q
b0 P
b10 O
b0 N
b0 M
b0 L
b0 K
b0 J
b0 I
b0 H
b10 G
b10 F
b0 E
0D
b0 C
b101010100 B
b0z A
b0 @
bz ?
b0 >
b0 =
b10001101001010000000000000001010 <
b0 ;
b0 :
b0 9
b0 8
b100 7
16
05
b0 4
b0 3
b100 2
01
00
0/
1.
b0 -
b0 ,
1+
1*
b0 )
b0 (
b0 '
b0 &
z%
0$
b0 #
0"
0!
$end
#1
1"
#2
b0 F
b0 V
0X
10
0.
1D
b1100001000 B
0+
b1000 7
b1000 u
b1010 >
b1010 ("
bz G
bz O
bz T
bz '
bz o
bz !"
b1000 2
b1000 r
b1000 s
b1 4
b1 z
b1001 )
b1001 |
b1000 (
b1000 }
b100011 -
b100011 U
b1010 '"
b100101000000000000000101000 9
b100101000000000000000101000 :
b100101000000000000000101000 &"
b1001010000000000000001010 %"
b10100z A
b10 Q
1x
bz l
b0 <
b0 g
b100 #
b100 p
b100 L
b100 e
b10010001101001010000000000000001010 J
b1010101000000000000000000000000000000000000000000000000000000000000000000000000000000000000000000000000000000000000 I
b0z000000000000000000000000000000000000000000000000000000000000000000000000000000000000000000000000 H
b0zzzzzzzzzzzzzzzzzzzzzzzzzzzzzzzz K
1!
#3
0!
#4
b1011 ;
b1011 k
06
b1011 E
b1011 P
b1011 h
b10 F
b10 V
1X
00
1.
0D
b101010100 B
1+
b1010 C
b1010 N
b1010 d
b1000 &
b1000 y
b101100 8
b101100 `
b10 G
b10 O
b10 T
b101000 =
b101000 _
b101000 $"
b1100 7
b1100 u
b0 >
b0 ("
b11 @
b100101000000000000000101000 i
b100011 S
b100 ^
b10010z A
b0 Q
1c
0x
b1000 v
b1010 R
b1010 b
b1010 #"
b1 M
b1100 2
b1100 r
b1100 s
b0 4
b0 z
b0 )
b0 |
b0 (
b0 }
b0 -
b0 U
b0 '"
b0 9
b0 :
b0 &"
b0 %"
b10100z000000000000000000000000000000000000000000000000000000000000000000000000000000000000000000000000 H
b1001010000000000000001010001000110000000000000000000000000000010011000010000100000000000000000000000000000000000010100000000000000000000000000000000000000000000000000000000000000001 I
b10101101100010110000000000010100 <
b10101101100010110000000000010100 g
b1000 #
b1000 p
b1000 L
b1000 e
b100000000000000000000000000000000000 J
1!
#5
0!
#6
b0 ;
b0 k
16
b0 F
b0 V
0X
1/
0*
x.
1D
b10100x0x00 B
x+
b0 E
b0 P
b0 h
b0 '
b0 o
b0 !"
b10000 7
b10000 u
b10100 >
b10100 ("
b1000 8
b1000 `
b0 &
b0 y
bz G
bz O
bz T
b0 C
b0 N
b0 d
b0 =
b0 _
b0 $"
b1101111010101111 ?
b1101111010101111 ]
b10000 2
b10000 r
b10000 s
b10 4
b10 z
b1100 )
b1100 |
b1101111011101101 3
b1101111011101101 {
b1011 (
b1011 }
b101011 -
b101011 U
b10100 '"
b110001011000000000001010000 9
b110001011000000000001010000 :
b110001011000000000001010000 &"
b1100010110000000000010100 %"
b0 i
b0 S
b1000 ^
b10100z A
b10 Q
0c
1x
b0 v
b0 R
b0 b
b0 #"
b0 M
b10 @
1[
b1011 Y
b101100 t
1~
1n
b1110011110110100000100000 <
b1110011110110100000100000 g
b1100 #
b1100 p
b1100 L
b1100 e
b110010101101100010110000000000010100 J
b100001010101000000000000000000000000000000000000000000000000000000000000000000000000000000000000000000000000000000000000 I
b1000010010z000000000000000000000000000000000000000000000000000000000000101100000000000000000000000000101100 H
b110000000000000000000000000000000000000zzzzzzzzzzzzzzzzzzzzzzzzzzzzzzzz K
1!
#7
0!
#8
b10110 ;
b10110 k
06
b10110 E
b10110 P
b10110 h
b10 F
b10 V
1X
0/
1*
1.
0D
b101010100 B
1+
b0x0xx &
b0x0xx y
b1101111010101111 '
b1101111010101111 o
b1101111010101111 !"
bz ?
bz ]
b1011100 8
b1011100 `
b10 G
b10 O
b10 T
b1010000 =
b1010000 _
b1010000 $"
b10100 C
b10100 N
b10100 d
b10100 7
b10100 u
b110100000100000 >
b110100000100000 ("
0n
b1000 ""
b1011 m
b1101111010101111 l
b11 @
0[
b0 Y
b1000 t
b110001011000000000001010000 i
b101011 S
b1100 ^
b1x00z A
b0 Q
1c
xx
b1011 v
b10100 R
b10100 b
b10100 #"
b1101111011101101 a
b10 M
b10100 2
b10100 r
b10100 s
b101 4
b101 z
b1110 )
b1110 |
b1001 3
b1001 {
b1111 (
b1111 }
b1101 ,
b0 -
b0 U
b110100000100000 '"
b111001111011010000010000000 9
b111001111011010000010000000 :
b111001111011010000010000000 &"
b1110011110110100000100000 %"
b10010000000000000000000000000000000101100000000000000001101111010101111 K
b10100z000000000000000000000000000000000000000000000000000000000000000000000000000000000000000000001000 H
b1100010110000000000010100001010110000000000000000000000000000110010100x0x000101100000000000000000000000000000000101000000000000000000110111101110110100000000000000000000000000000010 I
b1110011110101000000100010 <
b1110011110101000000100010 g
b10000 #
b10000 p
b10000 L
b10000 e
b1000000000001110011110110100000100000 J
1!
#9
0!
#10
b1110 ;
b1110 k
b1110 E
b1110 P
b1110 h
b11000 7
b11000 u
b101000000100010 >
b101000000100010 ("
b11010000010010000 8
b11010000010010000 `
b1101 &
b1101 y
b1001 C
b1001 N
b1001 d
b11010000010000000 =
b11010000010000000 _
b11010000010000000 $"
b0 '
b0 o
b0 !"
b11000 2
b11000 r
b11000 s
b1010 ,
b101000000100010 '"
b111001111010100000010001000 9
b111001111010100000010001000 :
b111001111010100000010001000 &"
b1110011110101000000100010 %"
b111001111011010000010000000 i
b0 S
b10000 ^
b10100z A
b10 Q
0c
1x
b1111 v
b1101 w
b100000 R
b110100000100000 b
b110100000100000 #"
b1001 a
b101 M
b0x @
1\
b1101111011101101 Z
b10110 Y
b1011100 t
1n
b0 ""
b0 m
bz l
b0 <
b0 g
b10100 #
b10100 p
b10100 L
b10100 e
b1010000000001110011110101000000100010 J
b1110011110110100000100000000000000000000000000000000000000001000001010101000111101101000000000000000001101000001000000000000000000000000000000000100100000000000000000000000000000101 I
b0x0xx001x00z000000000000000011011110111011010000000000000000000000000001011000000000000000000000000001011100 H
b110000000000000000000000000000000000000zzzzzzzzzzzzzzzzzzzzzzzzzzzzzzzz K
1!
#11
0!
#12
b11111111111111111111111111111100 ;
b11111111111111111111111111111100 k
b11111111111111111111111111111100 E
b11111111111111111111111111111100 P
b11111111111111111111111111111100 h
bx '
bx o
bx !"
b10100000010011100 8
b10100000010011100 `
b1010 &
b1010 y
b110 G
b110 O
b110 T
b10100000010001000 =
b10100000010001000 _
b10100000010001000 $"
b11100 7
b11100 u
b0 >
b0 ("
0~
xn
b0x0xx ""
b10110 m
b11 @
0\
b1001 Z
b1110 Y
b11010000010010000 t
b111001111010100000010001000 i
b10100 ^
b1010 w
b100010 R
b101000000100010 b
b101000000100010 #"
b11100 2
b11100 r
b11100 s
b0 4
b0 z
b0 )
b0 |
b0 3
b0 {
b0 (
b0 }
b0 ,
b0 '"
b0 9
b0 :
b0 &"
b0 %"
b0x0x0xx00000000000000000000000000010110zzzzzzzzzzzzzzzzzzzzzzzzzzzzzzzz K
b1101010100z000000000000000000000000000010010000000000000000000000000000111000000000000000011010000010010000 H
b1110011110101000000100010000000000000000000000000000000000001010001010101000111101010000000000000000001010000001000100000000000000000000000000000100100000000000000000000000000000101 I
b11000 #
b11000 p
b11000 L
b11000 e
b1100000000000000000000000000000000000 J
1!
#13
0!
#14
b0 ;
b0 k
16
b0 E
b0 P
b0 h
b1110 '
b1110 o
b1110 !"
b100000 7
b100000 u
b11000 8
b11000 `
b0 &
b0 y
bz G
bz O
bz T
b0 =
b0 _
b0 $"
b0 C
b0 N
b0 d
b100000 2
b100000 r
b100000 s
b0 i
b11000 ^
b0 v
b0 w
b0 R
b0 b
b0 #"
b0 a
b0 M
b11111111111111111111111111111100 Y
b10100000010011100 t
1~
1n
b1101 ""
b1110 m
b11100 #
b11100 p
b11100 L
b11100 e
b1110000000000000000000000000000000000 J
b1100001010101000000000000000000000000000000000000000000000000000000000000000000000000000000000000000000000000000000000000 I
b1010010100z000000000000000000000000000010011111111111111111111111111111110000000000000000010100000010011100 H
b110110100000000000000000000000000001110zzzzzzzzzzzzzzzzzzzzzzzzzzzzzzzz K
1!
#15
0!
#16
b11111111111111111111111111111100 '
b11111111111111111111111111111100 o
b11111111111111111111111111111100 !"
b11100 8
b11100 `
b100100 7
b100100 u
b1010 ""
b11111111111111111111111111111100 m
b0 Z
b0 Y
b11000 t
b11100 ^
b100100 2
b100100 r
b100100 s
b110101011111111111111111111111111111100zzzzzzzzzzzzzzzzzzzzzzzzzzzzzzzz K
b10100z000000000000000000000000000000000000000000000000000000000000000000000000000000000000000000011000 H
b1110001010101000000000000000000000000000000000000000000000000000000000000000000000000000000000000000000000000000000000000 I
b100000 #
b100000 p
b100000 L
b100000 e
b10000000000000000000000000000000000000 J
1!
#17
0!
#18
b101000 7
b101000 u
b100000 8
b100000 `
b0 '
b0 o
b0 !"
b101000 2
b101000 r
b101000 s
b100000 ^
b11100 t
b0 ""
b0 m
b100100 #
b100100 p
b100100 L
b100100 e
b10010000000000000000000000000000000000 J
b10000001010101000000000000000000000000000000000000000000000000000000000000000000000000000000000000000000000000000000000000 I
b10100z000000000000000000000000000000000000000000000000000000000000000000000000000000000000000000011100 H
b110000000000000000000000000000000000000zzzzzzzzzzzzzzzzzzzzzzzzzzzzzzzz K
1!
#19
0!
#20
b100100 8
b100100 `
b101100 7
b101100 u
b100000 t
b100100 ^
b101100 2
b101100 r
b101100 s
b10100z000000000000000000000000000000000000000000000000000000000000000000000000000000000000000000100000 H
b10010001010101000000000000000000000000000000000000000000000000000000000000000000000000000000000000000000000000000000000000 I
b101000 #
b101000 p
b101000 L
b101000 e
b10100000000000000000000000000000000000 J
1!
#21
0!
#22
b110000 7
b110000 u
b101000 8
b101000 `
b110000 2
b110000 r
b110000 s
b101000 ^
b100100 t
b101100 #
b101100 p
b101100 L
b101100 e
b10110000000000000000000000000000000000 J
b10100001010101000000000000000000000000000000000000000000000000000000000000000000000000000000000000000000000000000000000000 I
b10100z000000000000000000000000000000000000000000000000000000000000000000000000000000000000000000100100 H
1!
#23
0!
#24
b101100 8
b101100 `
b110100 7
b110100 u
b101000 t
b101100 ^
b110100 2
b110100 r
b110100 s
b10100z000000000000000000000000000000000000000000000000000000000000000000000000000000000000000000101000 H
b10110001010101000000000000000000000000000000000000000000000000000000000000000000000000000000000000000000000000000000000000 I
b110000 #
b110000 p
b110000 L
b110000 e
b11000000000000000000000000000000000000 J
1!
#25
0!
#26
b111000 7
b111000 u
b110000 8
b110000 `
b111000 2
b111000 r
b111000 s
b110000 ^
b101100 t
b110100 #
b110100 p
b110100 L
b110100 e
b11010000000000000000000000000000000000 J
b11000001010101000000000000000000000000000000000000000000000000000000000000000000000000000000000000000000000000000000000000 I
b10100z000000000000000000000000000000000000000000000000000000000000000000000000000000000000000000101100 H
1!
#27
0!
#28
b110100 8
b110100 `
b111100 7
b111100 u
b110000 t
b110100 ^
b111100 2
b111100 r
b111100 s
b10100z000000000000000000000000000000000000000000000000000000000000000000000000000000000000000000110000 H
b11010001010101000000000000000000000000000000000000000000000000000000000000000000000000000000000000000000000000000000000000 I
b111000 #
b111000 p
b111000 L
b111000 e
b11100000000000000000000000000000000000 J
1!
#29
0!
#30
b1000000 7
b1000000 u
b111000 8
b111000 `
b1000000 2
b1000000 r
b1000000 s
b111000 ^
b110100 t
b111100 #
b111100 p
b111100 L
b111100 e
b11110000000000000000000000000000000000 J
b11100001010101000000000000000000000000000000000000000000000000000000000000000000000000000000000000000000000000000000000000 I
b10100z000000000000000000000000000000000000000000000000000000000000000000000000000000000000000000110100 H
1!
#31
0!
#32
b111100 8
b111100 `
b1000100 7
b1000100 u
b111000 t
b111100 ^
b1000100 2
b1000100 r
b1000100 s
b10100z000000000000000000000000000000000000000000000000000000000000000000000000000000000000000000111000 H
b11110001010101000000000000000000000000000000000000000000000000000000000000000000000000000000000000000000000000000000000000 I
bx <
bx g
b1000000 #
b1000000 p
b1000000 L
b1000000 e
b100000000000000000000000000000000000000 J
1!
#33
0!
#34
zW
bz F
bz V
zX
z1
z5
z/
z0
z*
z.
zD
bz B
z+
b1001000 7
b1001000 u
bx >
bx ("
b1000000 8
b1000000 `
b1001000 2
b1001000 r
b1001000 s
bx 4
bx z
bx )
bx |
bx 3
bx {
bx (
bx }
bx ,
bx -
bx U
bx '"
b0xxxxxxxxxxxxxxxxxxxxxxxxxx00 9
bx00 :
bx00 &"
bx %"
b1000000 ^
b111100 t
b1000100 #
b1000100 p
b1000100 L
b1000100 e
b1000100xxxxxxxxxxxxxxxxxxxxxxxxxxxxxxxx J
b100000001010101000000000000000000000000000000000000000000000000000000000000000000000000000000000000000000000000000000000000 I
b10100z000000000000000000000000000000000000000000000000000000000000000000000000000000000000000000111100 H
1!
#35
0!
#36
b0xxxxxxxxxxxxxxxxxxxxxxxxxx00 ;
b0xxxxxxxxxxxxxxxxxxxxxxxxxx00 k
bx 8
bx `
bx &
bx y
bx00 =
bx00 _
bx00 $"
bx C
bx N
bx d
b1001100 7
b1001100 u
b1000000 t
b0xxxxxxxxxxxxxxxxxxxxxxxxxx00 i
bx S
b1000100 ^
bz A
bz Q
zc
zx
zj
bx v
bx w
bx R
bx b
bx #"
bx a
bx M
b1001100 2
b1001100 r
b1001100 s
b10100z000000000000000000000000000000000000000000000000000000000000000000000000000000000000000001000000 H
b0xxxxxxxxxxxxxxxxxxxxxxxxxx00xxxxxx00000000000000000000000001000100zzzzzzzzzzxxxxxxxxxxxxxxxxxxxxxxxxxxxxxxxxxxxxxxxxxxxxxxxxxxxxxxxxxxxxxxxxxxxxxxxxxxxxxxxxxxxxxxxxxxxxxxxxxxxxxxxxxx I
b1001000 #
b1001000 p
b1001000 L
b1001000 e
b1001000xxxxxxxxxxxxxxxxxxxxxxxxxxxxxxxx J
1!
#37
0!
#38
bx 7
bx u
x$
bx ?
bx ]
b1010000 2
b1010000 r
b1010000 s
b1001000 ^
bz @
z\
z[
bx Z
b0xxxxxxxxxxxxxxxxxxxxxxxxxx00 Y
bx t
b1001100 #
b1001100 p
b1001100 L
b1001100 e
b1001100xxxxxxxxxxxxxxxxxxxxxxxxxxxxxxxx J
b0xxxxxxxxxxxxxxxxxxxxxxxxxx00xxxxxx00000000000000000000000001001000zzzzzzzzzzxxxxxxxxxxxxxxxxxxxxxxxxxxxxxxxxxxxxxxxxxxxxxxxxxxxxxxxxxxxxxxxxxxxxxxxxxxxxxxxxxxxxxxxxxxxxxxxxxxxxxxxxxx I
bxzzzzzzzxxxxxxxxxxxxxxxxxxxxxxxxxxxxxxxx0000xxxxxxxxxxxxxxxxxxxxxxxxxx00xxxxxxxxxxxxxxxxxxxxxxxxxxxxxxxx H
1!
#39
0!
#40
bx '
bx o
bx !"
z~
zn
bx ""
b0xxxxxxxxxxxxxxxxxxxxxxxxxx00 m
bx l
b1001100 ^
bx 2
bx r
bx s
bzxxxxx0000xxxxxxxxxxxxxxxxxxxxxxxxxx00xxxxxxxxxxxxxxxxxxxxxxxxxxxxxxxx K
b0xxxxxxxxxxxxxxxxxxxxxxxxxx00xxxxxx00000000000000000000000001001100zzzzzzzzzzxxxxxxxxxxxxxxxxxxxxxxxxxxxxxxxxxxxxxxxxxxxxxxxxxxxxxxxxxxxxxxxxxxxxxxxxxxxxxxxxxxxxxxxxxxxxxxxxxxxxxxxxxx I
bx #
bx p
bx L
bx e
b1010000xxxxxxxxxxxxxxxxxxxxxxxxxxxxxxxx J
1!
#41
0!
#42
bx00 9
b1010000 ^
bx J
b0xxxxxxxxxxxxxxxxxxxxxxxxxx00xxxxxx00000000000000000000000001010000zzzzzzzzzzxxxxxxxxxxxxxxxxxxxxxxxxxxxxxxxxxxxxxxxxxxxxxxxxxxxxxxxxxxxxxxxxxxxxxxxxxxxxxxxxxxxxxxxxxxxxxxxxxxxxxxxxxx I
1!
#43
0!
#44
bx00 ;
bx00 k
bx00 i
bx ^
bx00xxxxxxxxxxxxxxxxxxxxxxxxxxxxxxxxxxxxxxzzzzzzzzzzxxxxxxxxxxxxxxxxxxxxxxxxxxxxxxxxxxxxxxxxxxxxxxxxxxxxxxxxxxxxxxxxxxxxxxxxxxxxxxxxxxxxxxxxxxxxxxxxxxxxxxxxxx I
1!
#45
0!
#46
bx00 Y
bxzzzzzzzxxxxxxxxxxxxxxxxxxxxxxxxxxxxxxxxxxxxxxxxxxxxxxxxxxxxxxxxxxxxxx00xxxxxxxxxxxxxxxxxxxxxxxxxxxxxxxx H
1!
#47
0!
#48
bx00 m
bzxxxxxxxxxxxxxxxxxxxxxxxxxxxxxxxxxxx00xxxxxxxxxxxxxxxxxxxxxxxxxxxxxxxx K
1!
#49
0!
#50
1!
0"
